{
    "parent": "futurepack:block/flash_server_w",
	"textures": {
		"slot1":"futurepack:blocks/machines/flash_server_slot1_on",
		"slot2":"futurepack:blocks/machines/flash_server_slot2_on",
		"slot3":"futurepack:blocks/machines/flash_server_slot3_on",
		"slot4":"futurepack:blocks/machines/flash_server_slot4_on"
	}
}
