{
  "variants": {
    "growth=small": {
      "model": "futurepack:block/crystal_neon_model"
    },
    "growth=bottom": {
      "model": "futurepack:block/crystal_neon_model_bottom"
    },
    "growth=top": {
      "model": "futurepack:block/crystal_neon_model_top"
    }
  }
}