{
    "variants": {
        "facing=down": { "model": "futurepack:block/dungeon_checkpoint" , "y":0, "x":180},
		"facing=up": { "model": "futurepack:block/dungeon_checkpoint" , "y":0, "x":0},
		"facing=north": { "model": "futurepack:block/dungeon_checkpoint" , "y":0, "x":90},
		"facing=south": { "model": "futurepack:block/dungeon_checkpoint" , "y":180, "x":90},
		"facing=west": { "model": "futurepack:block/dungeon_checkpoint" , "y":270, "x":90},		
		"facing=east": { "model": "futurepack:block/dungeon_checkpoint" , "y":90, "x":90}
    }
}
