{
    "variants": {
        "facing=down": { "model": "futurepack:block/pumpe_ne" , "y":0, "x":270},
        "facing=up": { "model": "futurepack:block/pumpe_ne" , "y":0, "x":90},
        "facing=north": { "model": "futurepack:block/pumpe_ne" , "y":180, "x":0},
        "facing=south": { "model": "futurepack:block/pumpe_ne" , "y":0, "x":0},
        "facing=west": { "model": "futurepack:block/pumpe_ne" , "y":90, "x":0},       
        "facing=east": { "model": "futurepack:block/pumpe_ne" , "y":270, "x":0}
    }
}