{
    "multipart": [
        {
        	"when":  { "state": "off" },
        	"apply": { "model": "futurepack:block/pipe_main_redstone_off" }
        },
        {
        	"when":  { "state": "on" },
        	"apply": { "model": "futurepack:block/pipe_main_redstone_on" }
        },
        {
        	"when":  { "state": "source" },
        	"apply": { "model": "futurepack:block/pipe_main_redstone_in" }
        },
        {
        	"when":  { "north": "on", "state": "off" },
            "apply": { "model": "futurepack:block/pipe_side_redstone_off", "uvlock": false }
        },
        {   "when": { "east": "on", "state": "off" },
            "apply": { "model": "futurepack:block/pipe_side_redstone_off", "y": 90, "uvlock": false }
        },
        {   "when": { "south": "on", "state": "off" },
            "apply": { "model": "futurepack:block/pipe_side_redstone_off", "y": 180, "uvlock": false }
        },
        {   "when": { "west": "on", "state": "off" },
            "apply": { "model": "futurepack:block/pipe_side_redstone_off", "y": 270, "uvlock": false }
        },
        {	"when": { "up": "on", "state": "off"},
        	"apply": { "model": "futurepack:block/pipe_side_redstone_off", "x": 270 , "uvlock": false}
        },
        {	"when": { "down": "on", "state": "off"},
        	"apply": { "model": "futurepack:block/pipe_side_redstone_off", "x": 90, "uvlock": false}
        },
        {
        	"when":  { "north": "on", "state": "on" },
            "apply": { "model": "futurepack:block/pipe_side_redstone_on", "uvlock": false }
        },
        {   "when": { "east": "on", "state": "on" },
            "apply": { "model": "futurepack:block/pipe_side_redstone_on", "y": 90, "uvlock": false }
        },
        {   "when": { "south": "on", "state": "on" },
            "apply": { "model": "futurepack:block/pipe_side_redstone_on", "y": 180, "uvlock": false }
        },
        {   "when": { "west": "on", "state": "on" },
            "apply": { "model": "futurepack:block/pipe_side_redstone_on", "y": 270, "uvlock": false }
        },
        {	"when": { "up": "on", "state": "on"},
        	"apply": { "model": "futurepack:block/pipe_side_redstone_on", "x": 270 , "uvlock": false}
        },
        {	"when": { "down": "on", "state": "on"},
        	"apply": { "model": "futurepack:block/pipe_side_redstone_on", "x": 90, "uvlock": false}
        },
        {
        	"when":  { "north": "on", "state": "source" },
            "apply": { "model": "futurepack:block/pipe_side_redstone_in", "uvlock": false }
        },
        {   "when": { "east": "on", "state": "source" },
            "apply": { "model": "futurepack:block/pipe_side_redstone_in", "y": 90, "uvlock": false }
        },
        {   "when": { "south": "on", "state": "source" },
            "apply": { "model": "futurepack:block/pipe_side_redstone_in", "y": 180, "uvlock": false }
        },
        {   "when": { "west": "on", "state": "source" },
            "apply": { "model": "futurepack:block/pipe_side_redstone_in", "y": 270, "uvlock": false }
        },
        {	"when": { "up": "on", "state": "source"},
        	"apply": { "model": "futurepack:block/pipe_side_redstone_in", "x": 270 , "uvlock": false}
        },
        {	"when": { "down": "on", "state": "source"},
        	"apply": { "model": "futurepack:block/pipe_side_redstone_in", "x": 90, "uvlock": false}
        },
        {
        	"when":  { "north": "cable", "state": "off" },
            "apply": { "model": "futurepack:block/pipe_cable_redstone_off", "uvlock": false }
        },
        {   "when": { "east": "cable", "state": "off" },
            "apply": { "model": "futurepack:block/pipe_cable_redstone_off", "y": 90, "uvlock": false }
        },
        {   "when": { "south": "cable", "state": "off" },
            "apply": { "model": "futurepack:block/pipe_cable_redstone_off", "y": 180, "uvlock": false }
        },
        {   "when": { "west": "cable", "state": "off" },
            "apply": { "model": "futurepack:block/pipe_cable_redstone_off", "y": 270, "uvlock": false }
        },
        {	"when": { "up": "cable", "state": "off"},
        	"apply": { "model": "futurepack:block/pipe_cable_redstone_off", "x": 270 , "uvlock": false}
        },
        {	"when": { "down": "cable", "state": "off"},
        	"apply": { "model": "futurepack:block/pipe_cable_redstone_off", "x": 90, "uvlock": false}
        },
        {
        	"when":  { "north": "cable", "state": "on" },
            "apply": { "model": "futurepack:block/pipe_cable_redstone_on", "uvlock": false }
        },
        {   "when": { "east": "cable", "state": "on" },
            "apply": { "model": "futurepack:block/pipe_cable_redstone_on", "y": 90, "uvlock": false }
        },
        {   "when": { "south": "cable", "state": "on" },
            "apply": { "model": "futurepack:block/pipe_cable_redstone_on", "y": 180, "uvlock": false }
        },
        {   "when": { "west": "cable", "state": "on" },
            "apply": { "model": "futurepack:block/pipe_cable_redstone_on", "y": 270, "uvlock": false }
        },
        {	"when": { "up": "cable", "state": "on"},
        	"apply": { "model": "futurepack:block/pipe_cable_redstone_on", "x": 270 , "uvlock": false}
        },
        {	"when": { "down": "cable", "state": "on"},
        	"apply": { "model": "futurepack:block/pipe_cable_redstone_on", "x": 90, "uvlock": false}
        },
        {
        	"when":  { "north": "cable", "state": "source" },
            "apply": { "model": "futurepack:block/pipe_cable_redstone_in", "uvlock": false }
        },
        {   "when": { "east": "cable", "state": "source" },
            "apply": { "model": "futurepack:block/pipe_cable_redstone_in", "y": 90, "uvlock": false }
        },
        {   "when": { "south": "cable", "state": "source" },
            "apply": { "model": "futurepack:block/pipe_cable_redstone_in", "y": 180, "uvlock": false }
        },
        {   "when": { "west": "cable", "state": "source" },
            "apply": { "model": "futurepack:block/pipe_cable_redstone_in", "y": 270, "uvlock": false }
        },
        {	"when": { "up": "cable", "state": "source"},
        	"apply": { "model": "futurepack:block/pipe_cable_redstone_in", "x": 270 , "uvlock": false}
        },
        {	"when": { "down": "cable", "state": "source"},
        	"apply": { "model": "futurepack:block/pipe_cable_redstone_in", "x": 90, "uvlock": false}
        }
    ]
}
