{
    "variants": {
      "facing=down": { "model": "futurepack:block/radar" , "y":0, "x":180},
      "facing=up": { "model": "futurepack:block/radar" , "y":0, "x":0},
      "facing=north": { "model": "futurepack:block/radar" , "y":0, "x":90},
      "facing=south": { "model": "futurepack:block/radar" , "y":180, "x":90},
      "facing=west": { "model": "futurepack:block/radar" , "y":270, "x":90},
      "facing=east": { "model": "futurepack:block/radar" , "y":90, "x":90}
    }
}
