{
    "multipart": [
        {   "when": { "powered": "false" },
        	"apply": { "model": "futurepack:block/cable_main_support_off" }
        },
        {   "when": { "north": "true", "powered": "false" },
            "apply": { "model": "futurepack:block/cable_north_support_off", "uvlock": false }
        },
        {   "when": { "east": "true", "powered": "false" },
            "apply": { "model": "futurepack:block/cable_north_support_off", "y": 90, "uvlock": false }
        },
        {   "when": { "south": "true", "powered": "false" },
            "apply": { "model": "futurepack:block/cable_north_support_off", "y": 180, "uvlock": false }
        },
        {   "when": { "west": "true", "powered": "false" },
            "apply": { "model": "futurepack:block/cable_north_support_off", "y": 270, "uvlock": false }
        },
        {	"when": { "up": "true", "powered": "false" },
        	"apply": { "model": "futurepack:block/cable_north_support_off", "x": 270 , "uvlock": false}
        },
        {	"when": { "down": "true", "powered": "false" },
        	"apply": { "model": "futurepack:block/cable_north_support_off", "x": 90, "uvlock": false}
        },
        {   "when": { "powered": "true" },
        	"apply": { "model": "futurepack:block/cable_main_support_on" }
        },
        {   "when": { "north": "true", "powered": "true" },
            "apply": { "model": "futurepack:block/cable_north_support_on", "uvlock": false }
        },
        {   "when": { "east": "true", "powered": "true" },
            "apply": { "model": "futurepack:block/cable_north_support_on", "y": 90, "uvlock": false }
        },
        {   "when": { "south": "true", "powered": "true" },
            "apply": { "model": "futurepack:block/cable_north_support_on", "y": 180, "uvlock": false }
        },
        {   "when": { "west": "true", "powered": "true" },
            "apply": { "model": "futurepack:block/cable_north_support_on", "y": 270, "uvlock": false }
        },
        {	"when": { "up": "true", "powered": "true" },
        	"apply": { "model": "futurepack:block/cable_north_support_on", "x": 270 , "uvlock": false}
        },
        {	"when": { "down": "true", "powered": "true" },
        	"apply": { "model": "futurepack:block/cable_north_support_on", "x": 90, "uvlock": false}
        }
    ]
}
