{
    "multipart": [
        {   "when": { "state": "off" },
        	"apply": { "model": "futurepack:block/cable_main_redstone_off" }
        },
        {   "when": { "north": "true", "state": "off" },
            "apply": { "model": "futurepack:block/cable_north_redstone_off", "uvlock": false }
        },
        {   "when": { "east": "true", "state": "off" },
            "apply": { "model": "futurepack:block/cable_north_redstone_off", "y": 90, "uvlock": false }
        },
        {   "when": { "south": "true", "state": "off" },
            "apply": { "model": "futurepack:block/cable_north_redstone_off", "y": 180, "uvlock": false }
        },
        {   "when": { "west": "true", "state": "off" },
            "apply": { "model": "futurepack:block/cable_north_redstone_off", "y": 270, "uvlock": false }
        },
        {	"when": { "up": "true", "state": "off" },
        	"apply": { "model": "futurepack:block/cable_north_redstone_off", "x": 270 , "uvlock": false}
        },
        {	"when": { "down": "true", "state": "off" },
        	"apply": { "model": "futurepack:block/cable_north_redstone_off", "x": 90, "uvlock": false}
        },
        {   "when": { "state": "on" },
        	"apply": { "model": "futurepack:block/cable_main_redstone_on" }
        },
        {   "when": { "north": "true", "state": "on" },
            "apply": { "model": "futurepack:block/cable_north_redstone_on", "uvlock": false }
        },
        {   "when": { "east": "true", "state": "on" },
            "apply": { "model": "futurepack:block/cable_north_redstone_on", "y": 90, "uvlock": false }
        },
        {   "when": { "south": "true", "state": "on" },
            "apply": { "model": "futurepack:block/cable_north_redstone_on", "y": 180, "uvlock": false }
        },
        {   "when": { "west": "true", "state": "on" },
            "apply": { "model": "futurepack:block/cable_north_redstone_on", "y": 270, "uvlock": false }
        },
        {	"when": { "up": "true", "state": "on" },
        	"apply": { "model": "futurepack:block/cable_north_redstone_on", "x": 270 , "uvlock": false}
        },
        {	"when": { "down": "true", "state": "on" },
        	"apply": { "model": "futurepack:block/cable_north_redstone_on", "x": 90, "uvlock": false}
        },
        {   "when": { "state": "source" },
        	"apply": { "model": "futurepack:block/cable_main_redstone_source" }
        },
        {   "when": { "north": "true", "state": "source" },
            "apply": { "model": "futurepack:block/cable_north_redstone_source", "uvlock": false }
        },
        {   "when": { "east": "true", "state": "source" },
            "apply": { "model": "futurepack:block/cable_north_redstone_source", "y": 90, "uvlock": false }
        },
        {   "when": { "south": "true", "state": "source" },
            "apply": { "model": "futurepack:block/cable_north_redstone_source", "y": 180, "uvlock": false }
        },
        {   "when": { "west": "true", "state": "source" },
            "apply": { "model": "futurepack:block/cable_north_redstone_source", "y": 270, "uvlock": false }
        },
        {	"when": { "up": "true", "state": "source" },
        	"apply": { "model": "futurepack:block/cable_north_redstone_source", "x": 270 , "uvlock": false}
        },
        {	"when": { "down": "true", "state": "source" },
        	"apply": { "model": "futurepack:block/cable_north_redstone_source", "x": 90, "uvlock": false}
        },
        
        {	"when": { "redstone": "true", "redstone_dust": "true", "state": "source" },
        	"apply": { "model": "futurepack:block/cable_north_redstone_source", "x": 90, "uvlock": false}
        },
        {	"when": { "redstone": "true", "redstone_dust": "true", "state": "off" },
        	"apply": { "model": "futurepack:block/cable_north_redstone_off", "x": 90, "uvlock": false}
        },
        {	"when": { "redstone": "true", "redstone_dust": "true", "state": "on" },
        	"apply": { "model": "futurepack:block/cable_north_redstone_on", "x": 90, "uvlock": false}
        }
    ]
}
