{
    "parent": "block/upper_slab",
    "textures": {
        "bottom": "futurepack:blocks/color_iron_2",
        "top": "futurepack:blocks/color_iron_2",
        "side": "futurepack:blocks/color_iron_2"
    }
}
