{
    "parent": "block/upper_slab",
    "textures": {
        "bottom": "futurepack:blocks/gitter_3",
        "top": "futurepack:blocks/gitter_3",
        "side": "futurepack:blocks/gitter_3"
    }
}
