{
    "parent": "block/outer_stairs",
    "textures": {
        "bottom": "futurepack:blocks/color_iron_6",
        "top": "futurepack:blocks/color_iron_6",
        "side": "futurepack:blocks/color_iron_6"
    }
}
