{
	"parent": "block/block",
	"textures": {
		"texture0": "#cable",
        "particle": "#cable"
	},
	"elements": [
		{
            "from": [ 6.0, 10.0, 6.0 ],
            "to": [ 10.0, 16.0, 10.0 ],
            "faces": {
                "down": { "uv": [ 4, 0, 8, 4  ], "texture": "#texture0", "rotation": 270},
                "up":   { "uv": [ 0, 12, 4, 16  ], "texture": "#texture0", "rotation": 90},
                "north":{ "uv": [ 0, 8, 6, 12  ], "texture": "#texture0", "rotation": 270},
                "south":{ "uv": [ 0, 8, 6, 12  ], "texture": "#texture0", "rotation": 270},
                "west": { "uv": [ 0, 8, 6, 12  ], "texture": "#texture0", "rotation": 270},
                "east": { "uv": [ 0, 4, 6, 8  ], "texture": "#texture0", "rotation": 90}
            }
        }
	]
}
