{
    "parent": "block/stairs",
    "textures": {
        "bottom": "futurepack:blocks/metal_block",
        "top": "futurepack:blocks/metal_block",
        "side": "futurepack:blocks/metal_block"
    }
}
