{
  "display": {
    "icon": {
      "item": "futurepack:laser_bow"
    },
    "title": {
      "translate": "advancements.futurepack.laserbow.title"
    },
    "description": {
      "translate": "advancements.futurepack.laserbow.description"
    }
  },
  "parent": "futurepack:the_impalpable",
  "criteria": {
    "optain_laserbow": {
      "trigger": "minecraft:inventory_changed",
      "conditions": {
        "items": [
          {
            "items": [ "futurepack:laser_bow" ]
          }
        ]
      }
    }
  },
  "requirements": [
  	["optain_laserbow"]
  ]
}