{
  "display": {
    "icon": {
      "item": "futurepack:maschineboard"
    },
    "title": {
      "translate": "advancements.futurepack.mainboard.title"
    },
    "description": {
      "translate": "advancements.futurepack.mainboard.description"
    }
  },
  "parent": "futurepack:labor",
  "criteria": {
    "mainboard": {
      "trigger": "minecraft:inventory_changed",
      "conditions": {
        "items": [
          {
            "items": [ "futurepack:maschineboard" ]
          }
        ]
      }
    }
  },
  "requirements": [
  	["mainboard"]
  ]
}