{
  "display": {
    "icon": {
      "item": "futurepack:battery_neon"
    },
    "title": {
      "translate": "advancements.futurepack.neon_energy.title"
    },
    "description": {
      "translate": "advancements.futurepack.neon_energy.description"
    }
  },
  "parent": "futurepack:labor",
  "criteria": {
    "generator": {
      "trigger": "minecraft:inventory_changed",
      "conditions": {
        "items": [
          {
            "items": [ "futurepack:t0_generator" ]
          }
        ]
      }
    }
  },
  "requirements": [
  	["generator"]
  ]
}