{
  "display": {
    "icon": {
      "item": "futurepack:leaves_tyros"
    },
    "title": {
      "translate": "advancements.futurepack.tyros.title"
    },
    "description": {
      "translate": "advancements.futurepack.tyros.description"
    }
  },
  "parent": "futurepack:menelaus",
  "criteria": {
    "on_tyros": {
      "trigger": "minecraft:changed_dimension",
      "conditions": {
        "to": "futurepack:tyros"
      }
    }
  },
  "requirements": [
    [
      "on_tyros"
    ]
  ]
}