{
  "replace": false,
  "values": [
    "minecraft:stone_slab",
    "minecraft:smooth_stone_slab",
    "minecraft:stone_brick_slab",
    "minecraft:sandstone_slab",
    "minecraft:spruce_slab",
    "minecraft:purpur_slab",
    "minecraft:quartz_slab",
    "minecraft:red_sandstone_slab",
    "minecraft:brick_slab",
    "minecraft:cobblestone_slab",
    "minecraft:nether_brick_slab",
    "minecraft:prismarine_slab",
    "minecraft:prismarine_brick_slab",
    "minecraft:polished_granite_slab",
    "minecraft:mossy_stone_brick_slab",
    "minecraft:polished_diorite_slab",
    "minecraft:mossy_cobblestone_slab",
    "minecraft:end_stone_brick_slab",
    "minecraft:smooth_sandstone_slab",
    "minecraft:smooth_quartz_slab",
    "minecraft:granite_slab",
    "minecraft:andesite_slab",
    "minecraft:red_nether_brick_slab",
    "minecraft:polished_andesite_slab",
    "minecraft:diorite_slab",
    "minecraft:cut_sandstone_slab",
    "minecraft:cut_red_sandstone_slab",
	"futurepack:cobblestone_m_slab",
	"futurepack:stone_m_slab",
	"futurepack:stonebrick_m_slab"
  ]
}