{
  "futurepack:advanced_boardcomputer:10": "futurepack:advanced_board_computer_black",
  "futurepack:advanced_boardcomputer:2": "futurepack:advanced_board_computer_white",
  "futurepack:advanced_boardcomputer:6": "futurepack:advanced_board_computer_gray",
  "futurepack:airbrush:0": "futurepack:airbrush",
  "futurepack:spaceship:10": "futurepack:parts_neon",
  "futurepack:analyzer:0": "futurepack:analyzer",
  "futurepack:antenne:0": "futurepack:antenna_white",
  "futurepack:antenne:1": "futurepack:antenna_gray",
  "futurepack:antenne:2": "futurepack:antenna_black",
  "futurepack:assembly_table:10": "futurepack:assembly_table_black",
  "futurepack:assembly_table:2": "futurepack:assembly_table_white",
  "futurepack:assembly_table:6": "futurepack:assembly_table_gray",
  "futurepack:baterie_box:0": "futurepack:battery_box_white",
  "futurepack:baterie_box:1": "futurepack:battery_box_gray",
  "futurepack:baterie_box:2": "futurepack:battery_box_black",
  "futurepack:beam:0": "futurepack:teleporter_both",
  "futurepack:beam:1": "futurepack:teleporter_up",
  "futurepack:beam:2": "futurepack:teleporter_down",
  "futurepack:beam:3": "futurepack:teleporter",
  "minecraft:iron_pickaxe:0": "minecraft:iron_pickaxe",
  "futurepack:board_computer:10": "futurepack:board_computer_black",
  "futurepack:board_computer:2": "futurepack:board_computer_white",
  "futurepack:board_computer:6": "futurepack:board_computer_gray",
  "futurepack:brennstoff_generator:0": "futurepack:t0_generator",
  "futurepack:claime:0": "futurepack:claime",
  "futurepack:color_gate_0:0": "futurepack:color_iron_fence_gate_white",
  "futurepack:color_gate_10:0": "futurepack:color_iron_fence_gate_purple",
  "futurepack:color_gate_11:0": "futurepack:color_iron_fence_gate_blue",
  "futurepack:color_gate_12:0": "futurepack:color_iron_fence_gate_brown",
  "futurepack:color_gate_13:0": "futurepack:color_iron_fence_gate_green",
  "futurepack:color_gate_14:0": "futurepack:color_iron_fence_gate_red",
  "futurepack:color_gate_15:0": "futurepack:color_iron_fence_gate_black",
  "futurepack:color_gate_1:0": "futurepack:color_iron_fence_gate_orange",
  "futurepack:color_gate_2:0": "futurepack:color_iron_fence_gate_magenta",
  "futurepack:color_gate_3:0": "futurepack:color_iron_fence_gate_light_blue",
  "futurepack:color_gate_4:0": "futurepack:color_iron_fence_gate_yellow",
  "futurepack:color_gate_5:0": "futurepack:color_iron_fence_gate_lime",
  "futurepack:color_gate_6:0": "futurepack:color_iron_fence_gate_pink",
  "futurepack:color_gate_7:0": "futurepack:color_iron_fence_gate_gray",
  "futurepack:color_gate_8:0": "futurepack:color_iron_fence_gate_light_gray",
  "futurepack:color_gate_9:0": "futurepack:color_iron_fence_gate_cyan",
  "futurepack:color_gitter_pane:0": "futurepack:color_gitter_pane_white",
  "futurepack:color_gitter_pane:1": "futurepack:color_gitter_pane_orange",
  "futurepack:color_gitter_pane:10": "futurepack:color_gitter_pane_purple",
  "futurepack:color_gitter_pane:11": "futurepack:color_gitter_pane_blue",
  "futurepack:color_gitter_pane:12": "futurepack:color_gitter_pane_brown",
  "futurepack:color_gitter_pane:13": "futurepack:color_gitter_pane_green",
  "futurepack:color_gitter_pane:14": "futurepack:color_gitter_pane_red",
  "futurepack:color_gitter_pane:15": "futurepack:color_gitter_pane_black",
  "futurepack:color_gitter_pane:2": "futurepack:color_gitter_pane_magenta",
  "futurepack:color_gitter_pane:3": "futurepack:color_gitter_pane_light_blue",
  "futurepack:color_gitter_pane:4": "futurepack:color_gitter_pane_yellow",
  "futurepack:color_gitter_pane:5": "futurepack:color_gitter_pane_lime",
  "futurepack:color_gitter_pane:6": "futurepack:color_gitter_pane_pink",
  "futurepack:color_gitter_pane:7": "futurepack:color_gitter_pane_gray",
  "futurepack:color_gitter_pane:8": "futurepack:color_gitter_pane_light_gray",
  "futurepack:color_gitter_pane:9": "futurepack:color_gitter_pane_cyan",
  "futurepack:color_gitter_stair0:0": "futurepack:color_iron_stair_white",
  "futurepack:color_gitter_stair10:0": "futurepack:color_iron_stair_purple",
  "futurepack:color_gitter_stair11:0": "futurepack:color_gitter_stair_blue",
  "futurepack:color_gitter_stair12:0": "futurepack:color_gitter_stair_brown",
  "futurepack:color_gitter_stair13:0": "futurepack:color_gitter_stair_green",
  "futurepack:color_gitter_stair14:0": "futurepack:color_gitter_stair_red",
  "futurepack:color_gitter_stair15:0": "futurepack:color_gitter_stair_black",
  "futurepack:color_gitter_stair1:0": "futurepack:color_gitter_stair_orange",
  "futurepack:color_gitter_stair2:0": "futurepack:color_gitter_stair_magenta",
  "futurepack:color_gitter_stair3:0": "futurepack:color_gitter_stair_light_blue",
  "futurepack:color_gitter_stair4:0": "futurepack:color_gitter_stair_yellow",
  "futurepack:color_gitter_stair5:0": "futurepack:color_gitter_stair_lime",
  "futurepack:color_gitter_stair6:0": "futurepack:color_gitter_stair_pink",
  "futurepack:color_gitter_stair7:0": "futurepack:color_gitter_stair_gray",
  "futurepack:color_gitter_stair8:0": "futurepack:color_gitter_stair_light_gray",
  "futurepack:color_gitter_stair9:0": "futurepack:color_gitter_stair_cyan",
  "futurepack:color_gitter_step_half_0:0": "futurepack:color_gitter_slab_white",
  "futurepack:color_gitter_step_half_0:1": "futurepack:color_gitter_slab_orange",
  "futurepack:color_gitter_step_half_0:10": "futurepack:color_gitter_slab_purple",
  "futurepack:color_gitter_step_half_0:11": "futurepack:color_gitter_slab_blue",
  "futurepack:color_gitter_step_half_0:12": "futurepack:color_gitter_slab_brown",
  "futurepack:color_gitter_step_half_0:13": "futurepack:color_gitter_slab_green",
  "futurepack:color_gitter_step_half_0:14": "futurepack:color_gitter_slab_red",
  "futurepack:color_gitter_step_half_0:15": "futurepack:color_gitter_slab_black",
  "futurepack:color_gitter_step_half_0:2": "futurepack:color_gitter_slab_magenta",
  "futurepack:color_gitter_step_half_0:3": "futurepack:color_gitter_slab_light_blue",
  "futurepack:color_gitter_step_half_0:4": "futurepack:color_gitter_slab_yellow",
  "futurepack:color_gitter_step_half_0:5": "futurepack:color_gitter_slab_lime",
  "futurepack:color_gitter_step_half_0:6": "futurepack:color_gitter_slab_pink",
  "futurepack:color_gitter_step_half_0:7": "futurepack:color_gitter_slab_gray",
  "futurepack:color_gitter_step_half_0:8": "futurepack:color_gitter_slab_light_gray",
  "futurepack:color_gitter_step_half_0:9": "futurepack:color_gitter_slab_cyan",
  "futurepack:color_glas:0": "futurepack:color_glass_white",
  "futurepack:color_glas:1": "futurepack:color_glass_orange",
  "futurepack:color_glas:10": "futurepack:color_glass_purple",
  "futurepack:color_glas:11": "futurepack:color_glass_blue",
  "futurepack:color_glas:12": "futurepack:color_glass_brown",
  "futurepack:color_glas:13": "futurepack:color_glass_green",
  "futurepack:color_glas:14": "futurepack:color_glass_red",
  "futurepack:color_glas:15": "futurepack:color_glass_black",
  "futurepack:color_glas:2": "futurepack:color_glass_magenta",
  "futurepack:color_glas:3": "futurepack:color_glass_light_blue",
  "futurepack:color_glas:4": "futurepack:color_glass_yellow",
  "futurepack:color_glas:5": "futurepack:color_glass_lime",
  "futurepack:color_glas:6": "futurepack:color_glass_pink",
  "futurepack:color_glas:7": "futurepack:color_glass_gray",
  "futurepack:color_glas:8": "futurepack:color_glass_light_gray",
  "futurepack:color_glas:9": "futurepack:color_glass_cyan",
  "futurepack:color_iron_stair0:0": "futurepack:color_iron_stair_white",
  "futurepack:color_iron_stair10:0": "futurepack:color_iron_stair_purple",
  "futurepack:color_iron_stair11:0": "futurepack:color_iron_stair_blue",
  "futurepack:color_iron_stair12:0": "futurepack:color_iron_stair_brown",
  "futurepack:color_iron_stair13:0": "futurepack:color_iron_stair_green",
  "futurepack:color_iron_stair14:0": "futurepack:color_iron_stair_red",
  "futurepack:color_iron_stair15:0": "futurepack:color_iron_stair_black",
  "futurepack:color_iron_stair1:0": "futurepack:color_iron_stair_orange",
  "futurepack:color_iron_stair2:0": "futurepack:color_iron_stair_magenta",
  "futurepack:color_iron_stair3:0": "futurepack:color_iron_stair_light_blue",
  "futurepack:color_iron_stair4:0": "futurepack:color_iron_stair_yellow",
  "futurepack:color_iron_stair5:0": "futurepack:color_iron_stair_lime",
  "futurepack:color_iron_stair6:0": "futurepack:color_iron_stair_pink",
  "futurepack:color_iron_stair7:0": "futurepack:color_iron_stair_gray",
  "futurepack:color_iron_stair8:0": "futurepack:color_iron_stair_light_gray",
  "futurepack:color_iron_stair9:0": "futurepack:color_iron_stair_cyan",
  "futurepack:color_iron_step_half_0:0": "futurepack:color_iron_slab_white",
  "futurepack:color_iron_step_half_0:1": "futurepack:color_iron_slab_orange",
  "futurepack:color_iron_step_half_0:10": "futurepack:color_iron_slab_purple",
  "futurepack:color_iron_step_half_0:11": "futurepack:color_iron_slab_blue",
  "futurepack:color_iron_step_half_0:12": "futurepack:color_iron_slab_brown",
  "futurepack:color_iron_step_half_0:13": "futurepack:color_iron_slab_green",
  "futurepack:color_iron_step_half_0:14": "futurepack:color_iron_slab_red",
  "futurepack:color_iron_step_half_0:15": "futurepack:color_iron_slab_black",
  "futurepack:color_iron_step_half_0:2": "futurepack:color_iron_slab_magenta",
  "futurepack:color_iron_step_half_0:3": "futurepack:color_iron_slab_light_blue",
  "futurepack:color_iron_step_half_0:4": "futurepack:color_iron_slab_yellow",
  "futurepack:color_iron_step_half_0:5": "futurepack:color_iron_slab_lime",
  "futurepack:color_iron_step_half_0:6": "futurepack:color_iron_slab_pink",
  "futurepack:color_iron_step_half_0:7": "futurepack:color_iron_slab_gray",
  "futurepack:color_iron_step_half_0:8": "futurepack:color_iron_slab_light_gray",
  "futurepack:color_iron_step_half_0:9": "futurepack:color_iron_slab_cyan",
  "futurepack:color_luftung:0": "futurepack:color_luftung_white",
  "futurepack:color_luftung_step_half_0:0": "futurepack:color_luftung_slab_white",
  "futurepack:color_luftung:1": "futurepack:color_luftung_orange",
  "futurepack:color_luftung_step_half_0:1": "futurepack:color_luftung_slab_orange",
  "futurepack:color_luftung:10": "futurepack:color_luftung_purple",
  "futurepack:color_luftung_step_half_0:10": "futurepack:color_luftung_slab_purple",
  "futurepack:color_luftung:11": "futurepack:color_luftung_blue",
  "futurepack:color_luftung_step_half_0:11": "futurepack:color_luftung_slab_blue",
  "futurepack:color_luftung:12": "futurepack:color_luftung_brown",
  "futurepack:color_luftung_step_half_0:12": "futurepack:color_luftung_slab_brown",
  "futurepack:color_luftung:13": "futurepack:color_luftung_green",
  "futurepack:color_luftung_step_half_0:13": "futurepack:color_luftung_slab_green",
  "futurepack:color_luftung:14": "futurepack:color_luftung_red",
  "futurepack:color_luftung_step_half_0:14": "futurepack:color_luftung_slab_red",
  "futurepack:color_luftung:15": "futurepack:color_luftung_black",
  "futurepack:color_luftung_step_half_0:15": "futurepack:color_luftung_slab_black",
  "futurepack:color_luftung:2": "futurepack:color_luftung_magenta",
  "futurepack:color_luftung_step_half_0:2": "futurepack:color_luftung_slab_magenta",
  "futurepack:color_luftung:3": "futurepack:color_luftung_light_blue",
  "futurepack:color_luftung_step_half_0:3": "futurepack:color_luftung_slab_light_blue",
  "futurepack:color_luftung:4": "futurepack:color_luftung_yellow",
  "futurepack:color_luftung_step_half_0:4": "futurepack:color_luftung_slab_yellow",
  "futurepack:color_luftung:5": "futurepack:color_luftung_lime",
  "futurepack:color_luftung_step_half_0:5": "futurepack:color_luftung_slab_lime",
  "futurepack:color_luftung:6": "futurepack:color_luftung_pink",
  "futurepack:color_luftung_step_half_0:6": "futurepack:color_luftung_slab_pink",
  "futurepack:color_luftung:7": "futurepack:color_luftung_gray",
  "futurepack:color_luftung_step_half_0:7": "futurepack:color_luftung_slab_gray",
  "futurepack:color_luftung:8": "futurepack:color_luftung_light_gray",
  "futurepack:color_luftung_step_half_0:8": "futurepack:color_luftung_slab_light_gray",
  "futurepack:color_luftung:9": "futurepack:color_luftung_cyan",
  "futurepack:color_luftung_step_half_0:9": "futurepack:color_luftung_slab_cyan",
  "futurepack:color_neon_on:0": "futurepack:color_neon_lamp_white",
  "futurepack:color_neon_on:1": "futurepack:color_neon_lamp_orange",
  "futurepack:color_neon_on:10": "futurepack:color_neon_lamp_purple",
  "futurepack:color_neon_on:11": "futurepack:color_neon_lamp_blue",
  "futurepack:color_neon_on:12": "futurepack:color_neon_lamp_brown",
  "futurepack:color_neon_on:13": "futurepack:color_neon_lamp_green",
  "futurepack:color_neon_on:14": "futurepack:color_neon_lamp_red",
  "futurepack:color_neon_on:15": "futurepack:color_neon_lamp_black",
  "futurepack:color_neon_on:2": "futurepack:color_neon_lamp_magenta",
  "futurepack:color_neon_on:3": "futurepack:color_neon_lamp_light_blue",
  "futurepack:color_neon_on:4": "futurepack:color_neon_lamp_yellow",
  "futurepack:color_neon_on:5": "futurepack:color_neon_lamp_lime",
  "futurepack:color_neon_on:6": "futurepack:color_neon_lamp_pink",
  "futurepack:color_neon_on:7": "futurepack:color_neon_lamp_gray",
  "futurepack:color_neon_on:8": "futurepack:color_neon_lamp_light_gray",
  "futurepack:color_neon_on:9": "futurepack:color_neon_lamp_cyan",
  "futurepack:color_plasma_on:0": "futurepack:color_plasma_lamp_white",
  "futurepack:color_plasma_on:1": "futurepack:color_plasma_lamp_orange",
  "futurepack:color_plasma_on:10": "futurepack:color_plasma_lamp_purple",
  "futurepack:color_plasma_on:11": "futurepack:color_plasma_lamp_blue",
  "futurepack:color_plasma_on:12": "futurepack:color_plasma_lamp_brown",
  "futurepack:color_plasma_on:13": "futurepack:color_plasma_lamp_green",
  "futurepack:color_plasma_on:14": "futurepack:color_plasma_lamp_red",
  "futurepack:color_plasma_on:15": "futurepack:color_plasma_lamp_black",
  "futurepack:color_plasma_on:2": "futurepack:color_plasma_lamp_magenta",
  "futurepack:color_plasma_on:3": "futurepack:color_plasma_lamp_light_blue",
  "futurepack:color_plasma_on:4": "futurepack:color_plasma_lamp_yellow",
  "futurepack:color_plasma_on:5": "futurepack:color_plasma_lamp_lime",
  "futurepack:color_plasma_on:6": "futurepack:color_plasma_lamp_pink",
  "futurepack:color_plasma_on:7": "futurepack:color_plasma_lamp_gray",
  "futurepack:color_plasma_on:8": "futurepack:color_plasma_lamp_light_gray",
  "futurepack:color_plasma_on:9": "futurepack:color_plasma_lamp_cyan",
  "futurepack:composite_chest:0": "futurepack:composite_chest",
  "futurepack:composite_axe:0": "futurepack:composite_axe",
  "futurepack:composite_boots:0": "futurepack:composite_boots",
  "futurepack:composite_chestplate:0": "futurepack:composite_chestplate",
  "futurepack:composite_door:0": "futurepack:composite_door",
  "futurepack:composite_fishing_rod:0": "futurepack:composite_fishing_rod",
  "futurepack:composite_helmet:0": "futurepack:composite_helmet",
  "futurepack:composite_hoe:0": "futurepack:composite_hoe",
  "futurepack:composite_leggings:0": "futurepack:composite_leggings",
  "futurepack:composite_spade:0": "futurepack:composite_spade",
  "futurepack:cristall:0": "futurepack:crystal_neon",
  "futurepack:cristall:12": "futurepack:crystal_alutin",
  "futurepack:cristall:3": "futurepack:crystal_retium",
  "futurepack:cristall:6": "futurepack:crystal_glowtite",
  "futurepack:cristall:9": "futurepack:crystal_bioterium",
  "futurepack:crusher:10": "futurepack:crusher_black",
  "futurepack:crusher:2": "futurepack:crusher_white",
  "futurepack:crusher:6": "futurepack:crusher_gray",
  "futurepack:deep_core_miner:0": "futurepack:deepcore_miner",
  "futurepack:eisenleiter:0": "futurepack:ironladder",
  "futurepack:elektro_magnet:0": "futurepack:electro_magnet",
  "futurepack:spaceship:53": "futurepack:chemicals_x",
  "minecraft:coal:0": "minecraft:coal",
  "futurepack:button:0": "futurepack:button",
  "futurepack:compactenergycell:0": "futurepack:compact_energy_cell",
  "minecraft:dye:10": "minecraft:lime_dye",
  "minecraft:dye:11": "minecraft:yellow_dye",
  "minecraft:dye:12": "minecraft:light_blue_dye",
  "minecraft:dye:13": "minecraft:magenta_dye",
  "futurepack:menelaus_mushroom:3": "futurepack:hyticus",
  "minecraft:dye:7": "minecraft:light_gray_dye",
  "futurepack:spaceship:47": "futurepack:mendel_flower",
  "minecraft:dye:9": "minecraft:pink_dye",
  "futurepack:energycell:0": "futurepack:energy_cell",
  "futurepack:core:1": "futurepack:core_a1",
  "futurepack:entityegger:4": "futurepack:minerbox",
  "futurepack:entityegger:0": "futurepack:entity_egger",
  "futurepack:entityegger:6": "futurepack:pearl_egger",
  "futurepack:entityegger:7": "futurepack:pearl_egger",
  "futurepack:wandrope:32767": "futurepack:composite_chest",
  "futurepack:ram:1": "futurepack:ram_a",
  "futurepack:entityegger:8": "futurepack:monocartbox",
  "futurepack:entity_eater:0": "futurepack:entity_eater",
  "futurepack:entity_eater:1": "futurepack:entity_killer",
  "futurepack:entity_eater:2": "futurepack:entity_healer",
  "futurepack:entity_eater:3": "futurepack:rocket_launcher",
  "futurepack:spaceship:13": "futurepack:ingot_aluminium",
  "futurepack:erz_blocke2:0": "futurepack:block_compressed_aluminium",
  "futurepack:erz_blocke2:1": "futurepack:block_compressed_bioterium",
  "futurepack:erz_blocke2:2": "futurepack:block_compressed_glowtite",
  "futurepack:erz_blocke2:3": "futurepack:block_compressed_neon",
  "futurepack:erz_blocke2:4": "futurepack:block_compressed_quantanium",
  "futurepack:erz_blocke2:5": "futurepack:block_compressed_retium",
  "futurepack:erz_blocke2:6": "futurepack:block_compressed_wakurium",
  "futurepack:itemerze:0": "futurepack:ingot_tin",
  "futurepack:erz_blocke:0": "futurepack:block_tin",
  "futurepack:itemerze:1": "futurepack:ingot_zinc",
  "futurepack:erz_blocke:1": "futurepack:block_zinc",
  "futurepack:itemerze:2": "futurepack:ingot_copper",
  "futurepack:erz_blocke:2": "futurepack:block_copper",
  "futurepack:erz_blocke:3": "futurepack:block_crystal_neon",
  "futurepack:erz_blocke:4": "futurepack:metal_block",
  "futurepack:erz_blocke:5": "futurepack:block_crystal_retium",
  "futurepack:erz_blocke:6": "futurepack:block_crystal_glowtite",
  "futurepack:erz_blocke:7": "futurepack:block_crystal_bioterium",
  "futurepack:erz_blocke:8": "futurepack:block_crystal_alutin",
  "futurepack:erz_blocke:9": "futurepack:metal_block_ventilation",
  "futurepack:escenner:0": "futurepack:escanner",
  "futurepack:timemanipulator:0": "futurepack:timemanipulator",
  "futurepack:external_core:0": "futurepack:external_core",
  "futurepack:extern_cooler:0": "futurepack:extern_cooler",
  "futurepack:e_furnace:2": "futurepack:neon_furnace_white",
  "futurepack:e_furnace:6": "futurepack:neon_furnace_gray",
  "minecraft:fish:32767": "minecraft:pufferfish",
  "futurepack:fish_block:0": "futurepack:fish_block",
  "futurepack:flash_server:10": "futurepack:flash_server_black",
  "futurepack:flash_server:2": "futurepack:flash_server_white",
  "futurepack:flash_server:6": "futurepack:flash_server_gray",
  "futurepack:fp_lever:0": "futurepack:fp_lever",
  "futurepack:chip:9": "futurepack:chip_ultimate",
  "futurepack:ftl_drive:0": "futurepack:ftl_drive",
  "futurepack:fuelcell:0": "futurepack:fuel_cell",
  "futurepack:gasturbine:10": "futurepack:gas_turbine_black",
  "futurepack:gasturbine:2": "futurepack:gas_turbine_white",
  "futurepack:gasturbine:6": "futurepack:gas_turbine_gray",
  "minecraft:carpet:0": "minecraft:white_carpet",
  "futurepack:grenade:0": "futurepack:grenade_empty",
  "futurepack:grenade:1": "futurepack:grenade_blaze",
  "futurepack:grenade:2": "futurepack:grenade_normal",
  "futurepack:grenade:3": "futurepack:grenade_plasma",
  "futurepack:grenade:4": "futurepack:grenade_slime",
  "futurepack:grenade:5": "futurepack:grenade_kompost",
  "futurepack:grenade:6": "futurepack:grenade_futter",
  "futurepack:grenade:7": "futurepack:grenade_saat",
  "futurepack:grenade_launcher:0": "futurepack:grenade_launcher",
  "futurepack:hologramcontroler:0": "futurepack:hologram_controler",
  "minecraft:fishing_rod:0": "minecraft:fishing_rod",
  "futurepack:hook:0": "futurepack:grappling_hook",
  "futurepack:industrie_ofen:0": "futurepack:industrial_furnace",
  "futurepack:ind_neon_furn:10": "futurepack:industrial_neon_furnace_black",
  "futurepack:ind_neon_furn:2": "futurepack:industrial_neon_furnace_white",
  "futurepack:ind_neon_furn:6": "futurepack:industrial_neon_furnace_gray",
  "futurepack:insert_node:0": "futurepack:insert_node",
  "futurepack:ion_collector:0": "futurepack:ion_collector_white",
  "futurepack:ion_collector:1": "futurepack:ion_collector_gray",
  "futurepack:ion_collector:2": "futurepack:ion_collector_black",
  "futurepack:itemerze:3": "futurepack:ingot_neon",
  "futurepack:itemerze:4": "futurepack:ingot_magnet",
  "futurepack:itemerze:5": "futurepack:ingot_retium",
  "futurepack:itemerze:6": "futurepack:ingot_glowtite",
  "futurepack:itemerze:7": "futurepack:ingot_bioterium",
  "futurepack:itemerze:8": "futurepack:ingot_wakurium",
  "futurepack:itemerze:9": "futurepack:ingot_quantanium",
  "futurepack:menelaus_mushroom:1": "futurepack:blueshroom",
  "futurepack:itemfood:1": "futurepack:glowmelo",
  "futurepack:itemfood:11": "futurepack:grillhufsteak",
  "futurepack:itemfood:12": "futurepack:topinambur_potato",
  "futurepack:itemfood:13": "futurepack:astrofood4",
  "minecraft:cooked_beef:0": "minecraft:cooked_beef",
  "minecraft:cooked_chicken:0": "minecraft:cooked_chicken",
  "futurepack:itemfood:2": "futurepack:astrofood1",
  "minecraft:cooked_porkchop:0": "minecraft:cooked_porkchop",
  "minecraft:cooked_mutton:0": "minecraft:cooked_mutton",
  "futurepack:itemfood:0": "futurepack:mendel_berry",
  "minecraft:rabbit_stew:0": "minecraft:rabbit_stew",
  "minecraft:beetroot_soup:0": "minecraft:beetroot_soup",
  "futurepack:itemfood:3": "futurepack:astrofood2",
  "minecraft:melon:0": "minecraft:melon",
  "futurepack:itemfood:4": "futurepack:astrofood3",
  "minecraft:sugar:0": "minecraft:sugar",
  "futurepack:itemfood:5": "futurepack:ersemarmelade",
  "minecraft:bread:0": "minecraft:bread",
  "futurepack:itemfood:6": "futurepack:ersebrot",
  "futurepack:itemfood:7": "futurepack:glowshroom_raw",
  "futurepack:lacktank0:0": "futurepack:lack_tank_white",
  "futurepack:lacktank10:0": "futurepack:lack_tank_purple",
  "futurepack:lacktank11:0": "futurepack:lack_tank_blue",
  "futurepack:lacktank12:0": "futurepack:lack_tank_brown",
  "futurepack:lacktank13:0": "futurepack:lack_tank_green",
  "futurepack:lacktank14:0": "futurepack:lack_tank_red",
  "futurepack:lacktank15:0": "futurepack:lack_tank_black",
  "futurepack:lacktank1:0": "futurepack:lack_tank_orange",
  "futurepack:lacktank2:0": "futurepack:lack_tank_magenta",
  "futurepack:lacktank3:0": "futurepack:lack_tank_light_blue",
  "futurepack:lacktank4:0": "futurepack:lack_tank_yellow",
  "futurepack:lacktank5:0": "futurepack:lack_tank_lime",
  "futurepack:lacktank6:0": "futurepack:lack_tank_pink",
  "futurepack:lacktank7:0": "futurepack:lack_tank_gray",
  "futurepack:lacktank8:0": "futurepack:lack_tank_light_gray",
  "futurepack:lacktank9:0": "futurepack:lack_tank_cyan",
  "futurepack:largebattery:0": "futurepack:battery_l",
  "futurepack:laserbow:250": "futurepack:laser_bow",
  "futurepack:lasercutter:0": "futurepack:lasercutter",
  "futurepack:chip:8": "futurepack:chip_tactic",
  "futurepack:laser_riffle:0": "futurepack:laser_rifle",
  "futurepack:chip:4": "futurepack:chip_network",
  "futurepack:laser_transmitter:0": "futurepack:laser_transmitter",
  "futurepack:logisticeditor:0": "futurepack:logistic_editor",
  "futurepack:magnet:0": "futurepack:magnet",
  "futurepack:metal_fence:0": "futurepack:metal_fence",
  "futurepack:metal_gate:0": "futurepack:metal_fence_gate",
  "futurepack:metal_gitter_block:0": "futurepack:metal_block_gitter",
  "futurepack:metal_gitter_pane:0": "futurepack:metal_gitter_pane",
  "futurepack:metal_gitter_treppe:0": "futurepack:metal_stair_gitter",
  "futurepack:metal_slap0:0": "futurepack:metal_slab",
  "futurepack:metal_slap0:1": "futurepack:metal_gitter_slab",
  "futurepack:metal_slap0:2": "futurepack:metal_ventilation_slab",
  "futurepack:metal_treppe:0": "futurepack:metal_stair",
  "futurepack:modul1calc:10": "futurepack:modul_1_calculation_black",
  "futurepack:modul1calc:2": "futurepack:modul_1_calculation_white",
  "futurepack:modul1calc:6": "futurepack:modul_1_calculation_gray",
  "futurepack:modular_door:0": "futurepack:modular_door",
  "futurepack:modul_1:10": "futurepack:modul_1_black",
  "futurepack:modul_1:2": "futurepack:modul_1_white",
  "futurepack:modul_1:6": "futurepack:modul_1_gray",
  "futurepack:modul_2:10": "futurepack:modul_2_black",
  "futurepack:modul_2:2": "futurepack:modul_2_white",
  "futurepack:modul_2:6": "futurepack:modul_2_gray",
  "futurepack:modul_3:10": "futurepack:modul_3_black",
  "futurepack:modul_3:2": "futurepack:modul_3_white",
  "futurepack:modul_3:6": "futurepack:modul_3_gray",
  "futurepack:modul_dynamo:0": "futurepack:modul_dynamo",
  "futurepack:modul_oxygen_mask:0": "futurepack:modul_oxygen_mask",
  "futurepack:modul_oxygen_tank:0": "futurepack:modul_oxygen_tank",
  "futurepack:modul_paraglider:0": "futurepack:modul_paraglider",
  "futurepack:wire:2": "futurepack:wire_super",
  "futurepack:monorail:0": "futurepack:monorail",
  "futurepack:monorail_booster:0": "futurepack:monorail_booster",
  "futurepack:monorail_charger:0": "futurepack:monorail_charger",
  "minecraft:heavy_weighted_pressure_plate:0": "minecraft:heavy_weighted_pressure_plate",
  "futurepack:monorail_detector:0": "futurepack:monorail_detector",
  "minecraft:hopper:0": "minecraft:hopper",
  "minecraft:comparator:0": "minecraft:comparator",
  "futurepack:monorail_station:0": "futurepack:monorail_station",
  "minecraft:sign:0": "minecraft:sign",
  "minecraft:redstone_torch:0": "minecraft:redstone_torch",
  "futurepack:monorail_waypoint:0": "futurepack:monorail_waypoint",
  "futurepack:neonbattery:0": "futurepack:battery_neon",
  "futurepack:neon_bricks:0": "futurepack:neon_brick",
  "futurepack:neon_bricks:1": "futurepack:retium_brick",
  "futurepack:neon_bricks:2": "futurepack:glowtite_brick",
  "futurepack:neon_bricks:3": "futurepack:bioterium_brick",
  "futurepack:neon_bricks:4": "futurepack:wakurium_brick",
  "futurepack:neon_bricks:5": "futurepack:quantanium_brick",
  "futurepack:normalbattery:0": "futurepack:battery_n",
  "futurepack:opti_assembler:10": "futurepack:opti_assembler_black",
  "futurepack:opti_assembler:2": "futurepack:opti_assembler_white",
  "futurepack:opti_assembler:6": "futurepack:opti_assembler_gray",
  "futurepack:opti_bench:10": "futurepack:opti_bench_black",
  "futurepack:opti_bench:2": "futurepack:opti_bench_white",
  "futurepack:opti_bench:6": "futurepack:opti_bench_gray",
  "futurepack:partpress:0": "futurepack:part_press",
  "futurepack:pipe:0": "futurepack:pipe_normal",
  "futurepack:pipe:1": "futurepack:pipe_redstone",
  "futurepack:pipe:2": "futurepack:pipe_neon",
  "futurepack:pipe:3": "futurepack:pipe_support",
  "futurepack:wood:1": "futurepack:log_mushroom",
  "futurepack:planks:0": "futurepack:planks_mushroom",
  "futurepack:wood:0": "futurepack:log_tyros",
  "futurepack:planks:1": "futurepack:planks_tyros",
  "futurepack:plasmaschneider:0": "futurepack:plasma_cutter",
  "futurepack:plasma_generator_on:10": "futurepack:infusion_generator_black",
  "futurepack:plasma_generator_on:2": "futurepack:infusion_generator_white",
  "futurepack:plasma_generator_on:6": "futurepack:infusion_generator_gray",
  "futurepack:pucher:0": "futurepack:pusher",
  "futurepack:pulsit:0": "futurepack:gravity_pulser",
  "futurepack:recycler:10": "futurepack:recycler_black",
  "futurepack:recycler:2": "futurepack:recycler_white",
  "futurepack:recycler:6": "futurepack:recycler_gray",
  "futurepack:rf_ne_converter:10": "futurepack:rf2ne_converter_black",
  "futurepack:rf_ne_converter:2": "futurepack:rf2ne_converter_white",
  "futurepack:rf_ne_converter:6": "futurepack:rf2ne_converter_gray",
  "futurepack:rocket:0": "futurepack:rocket",
  "futurepack:rocket_bioterium:0": "futurepack:rocket_bioterium",
  "futurepack:rocket_blaze:0": "futurepack:rocket_blaze",
  "futurepack:rocket_plasma:0": "futurepack:rocket_plasma",
  "minecraft:soul_sand:0": "minecraft:soul_sand",
  "futurepack:sapling_holder:2": "futurepack:sapling_holder_nether",
  "futurepack:sauerstofftank:0": "futurepack:oxygen_tank",
  "futurepack:shredder:0": "futurepack:shredder",
  "futurepack:solarpanel:0": "futurepack:solar_panel_white",
  "futurepack:solarpanel:1": "futurepack:solar_panel_gray",
  "futurepack:solarpanel:2": "futurepack:solar_panel_black",
  "futurepack:sorter:0": "futurepack:sorter",
  "minecraft:sticky_piston:0": "minecraft:sticky_piston",
  "futurepack:spacedoor:0": "futurepack:airlock_door",
  "minecraft:iron_ingot:0": "minecraft:iron_ingot",
  "futurepack:spaceship:12": "futurepack:iron_stick",
  "minecraft:glass_pane:0": "minecraft:glass_pane",
  "futurepack:spaceship:16": "futurepack:lack_tank_empty",
  "futurepack:spaceship:17": "futurepack:maschineboard",
  "futurepack:spaceship:18": "futurepack:drone_engine",
  "futurepack:spaceship:19": "futurepack:double_maschineboard",
  "futurepack:spaceship:20": "futurepack:astrofood_empty",
  "futurepack:core:0": "futurepack:core_standart",
  "futurepack:spaceship:21": "futurepack:dungeon_key_0",
  "futurepack:core:3": "futurepack:core_tct",
  "futurepack:spaceship:22": "futurepack:dungeon_key_1",
  "futurepack:spaceship:23": "futurepack:dungeon_key_2",
  "futurepack:spaceship:27": "futurepack:display",
  "futurepack:spaceship:29": "futurepack:laserdiode",
  "futurepack:spaceship:3": "futurepack:coil_copper",
  "minecraft:blaze_rod:0": "minecraft:blaze_rod",
  "futurepack:spaceship:36": "futurepack:fuel_rods",
  "futurepack:spaceship:4": "futurepack:coil_iron",
  "futurepack:spaceship:48": "futurepack:sword_handle",
  "futurepack:spaceship:5": "futurepack:coil_neon",
  "futurepack:spaceship:42": "futurepack:wood_chips",
  "minecraft:fermented_spider_eye:0": "minecraft:fermented_spider_eye",
  "futurepack:spaceship:54": "futurepack:coil_quantanium",
  "futurepack:spaceship:6": "futurepack:coil_gold",
  "futurepack:stone:0": "futurepack:stone_m",
  "futurepack:stone:2": "futurepack:stonebrick_m",
  "futurepack:sand:0": "futurepack:sand_m",
  "futurepack:stone:4": "futurepack:sandstone_m",
  "futurepack:stone:5": "futurepack:sandstone_smooth_m",
  "futurepack:sword_bioterium:0": "futurepack:sword_bioterium",
  "futurepack:sword_glowtite:0": "futurepack:sword_glowtite",
  "futurepack:sword_neon:0": "futurepack:sword_neon",
  "futurepack:sword_retium:0": "futurepack:sword_retium",
  "minecraft:dropper:0": "minecraft:dropper",
  "futurepack:syncronizer:0": "futurepack:syncronizer",
  "futurepack:techtable:0": "futurepack:techtable",
  "futurepack:telescope:0": "futurepack:telescope",
  "futurepack:triebwerk:0": "futurepack:thruster_white_light_blue",
  "futurepack:triebwerk:1": "futurepack:thruster_white_yellow",
  "futurepack:triebwerk:10": "futurepack:thruster_black_light_blue",
  "futurepack:triebwerk:11": "futurepack:thruster_black_yellow",
  "futurepack:triebwerk:12": "futurepack:thruster_black_lime",
  "futurepack:triebwerk:13": "futurepack:thruster_black_orange",
  "futurepack:triebwerk:14": "futurepack:thruster_black_purple",
  "futurepack:triebwerk:2": "futurepack:thruster_white_lime",
  "futurepack:triebwerk:3": "futurepack:thruster_white_orange",
  "futurepack:triebwerk:4": "futurepack:thruster_white_purple",
  "futurepack:triebwerk:5": "futurepack:thruster_light_gray_light_blue",
  "futurepack:triebwerk:6": "futurepack:thruster_light_gray_yellow",
  "futurepack:triebwerk:7": "futurepack:thruster_light_gray_lime",
  "futurepack:triebwerk:8": "futurepack:thruster_light_gray_orange",
  "futurepack:triebwerk:9": "futurepack:thruster_light_gray_purple",
  "futurepack:wandrope:0": "futurepack:wardrobe_white_normal_1",
  "futurepack:wandrope:1": "futurepack:wardrobe_white_normal_2",
  "futurepack:wandrope:10": "futurepack:wardrobe_black_large_1",
  "futurepack:wandrope:11": "futurepack:wardrobe_black_large_2",
  "futurepack:wandrope:2": "futurepack:wardrobe_white_large_1",
  "futurepack:wandrope:3": "futurepack:wardrobe_white_large_2",
  "futurepack:wandrope:4": "futurepack:wardrobe_light_gray_normal_1",
  "futurepack:wandrope:5": "futurepack:wardrobe_light_gray_normal_2",
  "futurepack:wandrope:6": "futurepack:wardrobe_light_gray_large_1",
  "futurepack:wandrope:7": "futurepack:wardrobe_light_gray_large_2",
  "futurepack:wandrope:8": "futurepack:wardrobe_black_normal_1",
  "futurepack:wandrope:9": "futurepack:wardrobe_black_normal_2",
  "futurepack:wasser_turbine:0": "futurepack:water_turbine_white",
  "futurepack:wasser_turbine:1": "futurepack:water_turbine_gray",
  "futurepack:wasser_turbine:2": "futurepack:water_turbine_black",
  "futurepack:wire:1": "futurepack:wire_redstone",
  "futurepack:wire:3": "futurepack:wire_support",
  "futurepack:wire:4": "futurepack:wire_network",
  "futurepack:zentrifuge:10": "futurepack:zentrifuge_black",
  "futurepack:zentrifuge:2": "futurepack:zentrifuge_white",
  "futurepack:zentrifuge:6": "futurepack:zentrifuge_gray",
  "futurepack:block_placer:0": "futurepack:block_placer",
  "futurepack:composite_pickaxe:0": "futurepack:composite_pickaxe",
  "futurepack:drone_station:0": "futurepack:drone_station",
  "futurepack:forscher:10": "futurepack:researcher_black",
  "futurepack:forscher:2": "futurepack:researcher_white",
  "futurepack:forscher:6": "futurepack:researcher_gray",
  "futurepack:magnet_boots:0": "futurepack:magnet_boots",
  "futurepack:magnet_chestplate:0": "futurepack:magnet_chestplate",
  "futurepack:magnet_helmet:0": "futurepack:magnet_helmet",
  "futurepack:magnet_leggings:0": "futurepack:magnet_leggings",
  "futurepack:modul_battery:0": "futurepack:modul_battery",
  "futurepack:modul_magnet:0": "futurepack:modul_magnet",
  "futurepack:modul_shield:0": "futurepack:modul_shield",
  "futurepack:monorail_oneway:0": "futurepack:monorail_oneway",
  "futurepack:neon_engine:0": "futurepack:neon_engine",
  "minecraft:clock:0": "minecraft:clock",
  "futurepack:rs_timer:0": "futurepack:rs_timer",
  "futurepack:scanner_block:10": "futurepack:scanner_block_black",
  "futurepack:scanner_block:2": "futurepack:scanner_block_white",
  "futurepack:scanner_block:6": "futurepack:scanner_block_gray",
  "futurepack:scrench:0": "futurepack:scrench",
  "futurepack:wire:0": "futurepack:wire_normal",
  "minecraft:apple:0": "minecraft:apple",
  "futurepack:color_iron:10": "futurepack:color_iron_purple",
  "futurepack:color_iron:9": "futurepack:color_iron_cyan",
  "futurepack:ram:4": "futurepack:ram_master",
  "futurepack:color_iron:11": "futurepack:color_iron_blue",
  "futurepack:color_gitter:9": "futurepack:color_gitter_cyan",
  "minecraft:stone_button:0": "minecraft:stone_button",
  "futurepack:chip:0": "futurepack:chip_logic",
  "futurepack:block_breaker:0": "futurepack:block_breaker",
  "futurepack:entityegger:5": "futurepack:forstmasterbox",
  "minecraft:leather_chestplate:0": "minecraft:leather_chestplate",
  "futurepack:gleiter:0": "futurepack:gleiter",
  "futurepack:itemfood:9": "futurepack:salad",
  "futurepack:sapling_holder:0": "futurepack:sapling_holder_plains",
  "futurepack:sapling_holder:1": "futurepack:sapling_holder_desert",
  "minecraft:water_bucket:0": "minecraft:water_bucket",
  "futurepack:aiflash2:0": "futurepack:aiflash2",
  "futurepack:spaceship:15": "futurepack:ingot_silicon",
  "futurepack:chip:6": "futurepack:chip_redstone",
  "futurepack:color_iron:8": "futurepack:color_iron_light_gray",
  "futurepack:aiflash0:0": "futurepack:aiflash0",
  "futurepack:color_iron:1": "futurepack:color_iron_orange",
  "minecraft:bowl:0": "minecraft:bowl",
  "minecraft:enchanting_table:0": "minecraft:enchanting_table",
  "futurepack:color_iron:6": "futurepack:color_iron_pink",
  "futurepack:ram:32767": "tag:futurepack:rams",
  "futurepack:spaceship:52": "futurepack:polymer",
  "minecraft:stone_slab:0": "minecraft:stone_slab",
  "minecraft:piston:0": "minecraft:piston",
  "futurepack:color_iron:13": "futurepack:color_iron_green",
  "futurepack:fluid_tube:0": "futurepack:fluid_tube",
  "futurepack:spaceship:31": "futurepack:lense_green",
  "futurepack:spaceship:30": "futurepack:lense_purple",
  "futurepack:color_gitter:11": "futurepack:color_gitter_blue",
  "futurepack:color_gitter:10": "futurepack:color_gitter_purple",
  "futurepack:chip:32767": "tag:futurepack:chips",
  "futurepack:color_iron:0": "futurepack:color_iron_white",
  "futurepack:spaceship:8": "futurepack:parts_diamond",
  "futurepack:core:2": "futurepack:core_p2",
  "futurepack:color_gitter:2": "futurepack:color_gitter_magenta",
  "futurepack:color_iron:7": "futurepack:color_iron_gray",
  "minecraft:dispenser:0": "minecraft:dispenser",
  "futurepack:color_iron:12": "futurepack:color_iron_brown",
  "minecraft:iron_bars:0": "minecraft:iron_bars",
  "minecraft:map:0": "minecraft:map",
  "futurepack:fluid_intake:0": "futurepack:fluid_intake",
  "futurepack:fluid_tank:0": "futurepack:fluid_tank",
  "futurepack:fluid_pump:0": "futurepack:fluid_pump",
  "futurepack:water_cooler:0": "futurepack:water_cooler",
  "futurepack:color_gitter:6": "futurepack:color_gitter_pink",
  "futurepack:color_iron:15": "futurepack:color_iron_black",
  "futurepack:color_gitter:14": "futurepack:color_gitter_red",
  "futurepack:spaceship:14": "futurepack:composite_metal",
  "futurepack:spaceship:43": "futurepack:kompost",
  "futurepack:color_gitter:3": "futurepack:color_gitter_light_blue",
  "futurepack:spaceship:7": "futurepack:parts_iron",
  "futurepack:color_gitter:15": "futurepack:color_gitter_black",
  "futurepack:escenner:1": "futurepack:escanner",
  "futurepack:color_gitter:13": "futurepack:color_gitter_green",
  "futurepack:spaceship:11": "futurepack:parts_copper",
  "futurepack:color_iron:4": "futurepack:color_iron_yellow",
  "futurepack:chip:1": "futurepack:chip_ai",
  "futurepack:color_iron:2": "futurepack:color_iron_magenta",
  "futurepack:color_gitter:1": "futurepack:color_gitter_orange",
  "futurepack:color_iron:14": "futurepack:color_iron_red",
  "futurepack:core:4": "futurepack:core_master",
  "futurepack:chip:7": "futurepack:chip_support",
  "futurepack:color_iron:5": "futurepack:color_iron_lime",
  "futurepack:color_gitter:5": "futurepack:color_gitter_lime",
  "minecraft:blaze_powder:0": "minecraft:blaze_powder",
  "futurepack:color_gitter:7": "futurepack:color_gitter_gray",
  "minecraft:wheat_seeds:0": "minecraft:wheat_seeds",
  "futurepack:menelaus_mushroom:2": "futurepack:blueshroom",
  "futurepack:spaceship:25": "futurepack:topinambur_flower",
  "minecraft:brown_mushroom:0": "minecraft:brown_mushroom",
  "futurepack:chip:10": "futurepack:chip_damage_control",
  "minecraft:furnace:0": "minecraft:furnace",
  "futurepack:erse:0": "futurepack:erse",
  "futurepack:color_gitter:0": "futurepack:color_gitter_white",
  "futurepack:menelaus_mushroom:0": "futurepack:peakhead",
  "futurepack:spaceship:9": "futurepack:parts_quartz",
  "futurepack:chip:5": "futurepack:chip_industrie",
  "futurepack:fermentationbarrel:0": "futurepack:fermentation_barrel",
  "futurepack:chip:2": "futurepack:chip_transport",
  "futurepack:color_gitter:12": "futurepack:color_gitter_brown",
  "minecraft:light_weighted_pressure_plate:0": "minecraft:light_weighted_pressure_plate",
  "futurepack:core:32767": "tag:futurepack:cores",
  "minecraft:bow:0": "minecraft:bow",
  "futurepack:spaceship:28": "futurepack:parts_gold",
  "futurepack:color_gitter:8": "futurepack:color_gitter_light_gray",
  "futurepack:color_iron:3": "futurepack:color_iron_light_blue",
  "futurepack:color_gitter:4": "futurepack:color_gitter_yellow",
  "futurepack:chip:3": "futurepack:chip_navigation",
  "futurepack:spaceship:32": "futurepack:lense_red",
  "futurepack:e_furnace:10": "futurepack:neon_furnace_black",
  "minecraft:obsidian:0": "minecraft:obsidian",
  "minecraft:iron_nugget:0": "minecraft:iron_nugget",
  "minecraft:iron_block:0": "minecraft:iron_block",
  "minecraft:anvil:0": "minecraft:anvil",
  "minecraft:brick:0": "minecraft:brick",
  "minecraft:flower_pot:0": "minecraft:flower_pot",
  "minecraft:minecart:0": "minecraft:minecart",
  "minecraft:bucket:0": "minecraft:bucket",
  "minecraft:cobblestone:0": "minecraft:cobblestone",
  "minecraft:brewing_stand:0": "minecraft:brewing_stand",
  "minecraft:cauldron:0": "minecraft:cauldron",
  "minecraft:iron_horse_armor:0": "minecraft:iron_horse_armor",
  "minecraft:gold_ingot:0": "minecraft:gold_ingot",
  "minecraft:golden_horse_armor:0": "minecraft:golden_horse_armor",
  "minecraft:diamond:0": "minecraft:diamond",
  "minecraft:diamond_horse_armor:0": "minecraft:diamond_horse_armor",
  "minecraft:stick:0": "minecraft:stick",
  "minecraft:coal:1": "minecraft:coal",
  "minecraft:wooden_sword:0": "minecraft:wooden_sword",
  "minecraft:wooden_shovel:0": "minecraft:wooden_shovel",
  "minecraft:wooden_pickaxe:0": "minecraft:wooden_pickaxe",
  "minecraft:wooden_axe:0": "minecraft:wooden_axe",
  "minecraft:wooden_hoe:0": "minecraft:wooden_hoe",
  "minecraft:string:0": "minecraft:string",
  "minecraft:gunpowder:0": "minecraft:gunpowder",
  "minecraft:glass:0": "minecraft:glass",
  "minecraft:sand:0": "minecraft:sand",
  "minecraft:gravel:0": "minecraft:gravel",
  "futurepack:aiflash1:0": "futurepack:aiflash1",
  "futurepack:core:5": "futurepack:core_non",
  "futurepack:core:6": "futurepack:core_dungeon",
  "futurepack:spaceship:34": "futurepack:fragment_core",
  "futurepack:ram:0": "futurepack:ram_standart",
  "futurepack:ram:2": "futurepack:ram_p",
  "futurepack:ram:3": "futurepack:ram_tct",
  "futurepack:ram:5": "futurepack:ram_non",
  "futurepack:ram:6": "futurepack:ram_dungeon",
  "futurepack:spaceship:35": "futurepack:fragment_ram",
  "minecraft:compass:0": "minecraft:compass",
  "minecraft:golden_sword:0": "minecraft:golden_sword",
  "futurepack:aiflash3:0": "futurepack:aiflash3",
  "futurepack:aiflash4:0": "futurepack:aiflash4",
  "futurepack:aiflash5:0": "futurepack:aiflash5",
  "minecraft:clay_ball:0": "minecraft:clay_ball",
  "futurepack:spaceship:33": "futurepack:lense_white",
  "minecraft:stained_glass_pane:14": "minecraft:red_stained_glass_pane",
  "minecraft:stained_glass_pane:10": "minecraft:purple_stained_glass_pane",
  "minecraft:stained_glass_pane:5": "minecraft:lime_stained_glass_pane",
  "minecraft:golden_carrot:0": "minecraft:golden_carrot",
  "futurepack:spaceship:41": "futurepack:fibers",
  "futurepack:sapling:0": "futurepack:sapling_mushroom",
  "minecraft:log:3": "minecraft:jungle_log",
  "futurepack:neon_sand:0": "futurepack:sand_neon",
  "futurepack:neon_sand:1": "futurepack:sand_retium",
  "futurepack:neon_sand:2": "futurepack:sand_glowtite",
  "futurepack:neon_sand:3": "futurepack:sand_bioterium",
  "futurepack:neon_sand:4": "futurepack:sand_alutin",
  "minecraft:stone:5": "minecraft:andesite",
  "minecraft:stone:1": "minecraft:granite",
  "minecraft:stone:3": "minecraft:diorite",
  "minecraft:sand:1": "minecraft:red_sand",
  "minecraft:sandstone:0": "minecraft:sandstone",
  "minecraft:ender_pearl:0": "minecraft:ender_pearl",
  "minecraft:end_stone:0": "minecraft:end_stone",
  "futurepack:stone:1": "futurepack:stone_m",
  "futurepack:dirt:0": "futurepack:dirt_m",
  "futurepack:gravel:0": "futurepack:gravel_m",
  "minecraft:dirt:0": "minecraft:dirt",
  "minecraft:dirt:1": "minecraft:coarse_dirt",
  "minecraft:dirt:2": "minecraft:podzol",
  "minecraft:grass:0": "minecraft:grass_block",
  "minecraft:mossy_cobblestone:0": "minecraft:mossy_cobblestone",
  "futurepack:entityEgger:0": "futurepack:entity_egger",
  "minecraft:slime_ball:0": "minecraft:slime_ball",
  "minecraft:egg:0": "minecraft:egg",
  "minecraft:red_mushroom:0": "minecraft:red_mushroom",
  "minecraft:melon_seeds:0": "minecraft:melon_seeds",
  "minecraft:reeds:0": "minecraft:sugar_cane",
  "minecraft:dye:2": "minecraft:green_dye",
  "minecraft:cactus:0": "minecraft:cactus",
  "minecraft:vine:0": "minecraft:vine",
  "minecraft:waterlily:0": "minecraft:lily_pad",
  "minecraft:clay:0": "minecraft:clay",
  "minecraft:hardened_clay:0": "minecraft:terracotta",
  "minecraft:stained_hardened_clay:0": "minecraft:white_terracotta",
  "minecraft:hay_block:0": "minecraft:hay_block",
  "minecraft:wheat:0": "minecraft:wheat",
  "minecraft:yellow_flower:0": "minecraft:dandelion",
  "minecraft:dye:1": "minecraft:red_dye",
  "minecraft:red_flower:0": "minecraft:poppy",
  "minecraft:red_flower:1": "minecraft:blue_orchid",
  "minecraft:red_flower:2": "minecraft:allium",
  "minecraft:red_flower:3": "minecraft:azure_bluet",
  "minecraft:red_flower:4": "minecraft:red_tulip",
  "minecraft:dye:14": "minecraft:orange_dye",
  "minecraft:red_flower:5": "minecraft:orange_tulip",
  "minecraft:red_flower:6": "minecraft:white_tulip",
  "minecraft:red_flower:7": "minecraft:pink_tulip",
  "minecraft:red_flower:8": "minecraft:oxeye_daisy",
  "minecraft:double_plant:0": "minecraft:sunflower",
  "minecraft:double_plant:1": "minecraft:lilac",
  "minecraft:double_plant:4": "minecraft:rose_bush",
  "minecraft:double_plant:5": "minecraft:peony",
  "sem:feuerblume:0": "sem:feuer_blume",
  "sem:eisblume:0": "sem:eis_blume",
  "sem:staubblume:0": "sem:staub_blume",
  "minecraft:netherrack:0": "minecraft:netherrack",
  "futurepack:entityEgger:2": "futurepack:spawner_chest",
  "minecraft:chest:0": "minecraft:chest",
  "minecraft:carrot:0": "minecraft:carrot",
  "minecraft:speckled_melon:0": "minecraft:glistering_melon_slice",
  "minecraft:golden_apple:0": "minecraft:golden_apple",
  "minecraft:leather:0": "minecraft:leather",
  "minecraft:rotten_flesh:0": "minecraft:rotten_flesh",
  "minecraft:potato:0": "minecraft:potato",
  "minecraft:pumpkin:0": "minecraft:pumpkin",
  "minecraft:wool:0": "minecraft:white_wool",
  "minecraft:dye:15": "minecraft:bone_meal",
  "fp:spaceship:43": "futurepack:chemicals_x",
  "fp:spaceship:25": "futurepack:topinambur_flower",
  "fp:itemfood:12": "futurepack:topinambur_potato",
  "minecraft:beetroot:0": "minecraft:beetroot",
  "futurepack:scanner_block:0": "futurepack:scanner_block_white",
  "minecraft:milk_bucket:0": "minecraft:milk_bucket",
  "minecraft:iron_axe:0": "minecraft:iron_axe",
  "minecraft:quartz:0": "minecraft:quartz",
  "minecraft:golden_helmet:0": "minecraft:golden_helmet",
  "futurepack:modul_1:0": "futurepack:modul_1_white",
  "futurepack:opti_bench:0": "futurepack:opti_bench_white",
  "minecraft:ender_eye:0": "minecraft:ender_eye",
  "minecraft:redstone:0": "minecraft:redstone",
  "minecraft:redstone_lamp:0": "minecraft:redstone_lamp",
  "minecraft:iron_shovel:0": "minecraft:iron_shovel",
  "futurepack:spaceship:38": "futurepack:ceramic",
  "futurepack:prismid:0": "futurepack:prismide",
  "futurepack:research_blueprint:0": "futurepack:research_blueprint",
  "nether_star:0": "nether_star",
  "dragon_egg:0": "dragon_egg",
  "futurepack:core:8": "futurepack:core_zombie",
  "futurepack:spaceship:24": "futurepack:dungeon_key_3",
  "futurepack:spaceship:1": "minecraft:nether_star",
  "minecraft:lava_bucket:0": "minecraft:lava_bucket",
  "minecraft:iron_ore:0": "minecraft:iron_ore",
  "minecraft:sapling:0": "minecraft:oak_sapling",
  "futurepack:assembly_table:0": "futurepack:assembly_table_white",
  "futurepack:opti_assembler:0": "futurepack:opti_assembler_white",
  "minecraft:redstone_block:0": "minecraft:redstone_block",
  "futurepack:block_with_hole:0": "minecraft:command_block",
  "futurepack:crystalenergycell:0": "futurepack:crystal_energy_cell",
  "minecraft:flint_and_steel:0": "minecraft:flint_and_steel",
  "minecraft:lever:0": "minecraft:lever",
  "minecraft:glass_bottle:0": "minecraft:glass_bottle",
  "futurepack:ram:9": "futurepack:ram_entronium",
  "futurepack:ram:7": "futurepack:ram_torus",
  "futurepack:core:9": "futurepack:core_entronium",
  "futurepack:core:7": "futurepack:core_torus",
  "minecraft:iron_door:0": "minecraft:iron_door",
  "comparator:0": "comparator",
  "futurepack:spaceship:40": "futurepack:spacecoordinats",
  "minecraft:stone_pressure_plate:0": "minecraft:stone_pressure_plate",
  "minecraft:porkchop:0": "minecraft:porkchop",
  "futurepack:logisticeditor:1": "futurepack:logistic_editor",
  "futurepack:logisticeditor:2": "futurepack:logistic_editor",
  "futurepack:logisticeditor:3": "futurepack:logistic_editor",
  "futurepack:logisticeditor:4": "futurepack:logistic_editor",
  "minecraft:golden_pickaxe:0": "minecraft:golden_pickaxe",
  "minecraft:golden_axe:0": "minecraft:golden_axe",
  "minecraft:golden_shovel:0": "minecraft:golden_shovel",
  "minecraft:golden_hoe:0": "minecraft:golden_hoe",
  "minecraft:fish:0": "minecraft:pufferfish",
  "futurepack:entityegger:2": "futurepack:spawner_chest",
  "minecraft:feather:0": "minecraft:feather",
  "futurepack:forscher:0": "futurepack:researcher_white",
  "futurepack:laserbow:0": "futurepack:laser_bow",
  "futurepack:erze:1": "futurepack:ore_zinc",
  "futurepack:leaves:0": "futurepack:leaves_tyros"
}