{
  "type": "tconstruct:casting_basin",
    "conditions": [
        {
            "type": "forge:mod_loaded",
            "modid": "tconstruct"
        }
    ],
  "fluid": {
    "name": "futurepack:molten_composite_metal",
    "amount": 576
  },
  "result": "futurepack:metal_block",
  "cooling_time": 50
}