{
  "type": "futurepack:research_shaped",
  "group": "futurepack",
  "pattern": [
    "SLS",
    "PBP",
    "RCR"
  ],
  "key": {
    "S": {
      "item": "futurepack:coil_iron"
    },
    "P": {
      "item": "futurepack:polymer"
    },
    "C": {
      "item": "futurepack:core_master"
    },
    "R": {
      "item": "futurepack:ram_master"
    },
    "L": {
      "item": "futurepack:metal_block_ventilation"
    },
    "B": {
      "item": "futurepack:board_computer_white"
    }
  },
  "result": {
    "item": "futurepack:advanced_board_computer_white"
  }
}