{
  "type": "futurepack:research_shapeless",
  "group": "futurepack",
  "ingredients": [
    {
      "item": "futurepack:composite_metal"
    },
    {
      "tag": "forge:dusts/redstone"
    }
  ],
  "result": {
    "item": "futurepack:button"
  }
}