{
  "type": "futurepack:research_shaped",
  "group": "futurepack",
  "pattern": [
    "   ",
    "SCS",
    "SCS"
  ],
  "key": {
    "S": {
      "tag": "forge:rods/iron"
    },
    "C": {
      "item": "futurepack:color_iron_magenta"
    }
  },
  "result": {
    "item": "futurepack:color_iron_fence_gate_magenta"
  }
}