{
  "type": "futurepack:research_shaped",
  "group": "futurepack",
  "pattern": [
    "GGG"
  ],
  "key": {
    "G": {
      "item": "futurepack:color_gitter_blue"
    }
  },
  "result": {
    "item": "futurepack:color_gitter_slab_blue",
    "count": 6
  }
}