{
  "type": "futurepack:research_shaped",
  "group": "futurepack",
  "pattern": [
    "CCC",
    " S ",
    " S "
  ],
  "key": {
    "C": {
      "item": "futurepack:composite_metal"
    },
    "S": [
      {
        "tag": "forge:rods/iron"
      }
    ]
  },
  "result": {
    "item": "futurepack:composite_pickaxe"
  }
}