{
  "type": "futurepack:research_shaped",
  "group": "futurepack",
  "pattern": [
    "CCC",
    "YBY",
    "CCC"
  ],
  "key": {
    "C": {
      "item": "futurepack:composite_metal"
    },
    "Y": {
      "item": "minecraft:yellow_dye"
    },
	"B": {
      "item": "minecraft:black_dye"
    }
  },
  "result": {
    "item": "futurepack:deco_industrial",
    "count": 6
  }
}