{
  "type": "futurepack:maschin_shaped",
  "group": "futurepack",
  "pattern": [
    "VSV",
    "PTP",
    "VMV"
  ],
  "key": {
    "S": {
      "item": "futurepack:coil_copper"
    },
    "V": {
      "item": "futurepack:composite_metal"
    },
    "P": {
      "item": "futurepack:fluid_tube"
    },
    "T": {
      "item": "futurepack:lack_tank_empty"
    },
    "M": {
      "item": "futurepack:maschineboard"
    }
  },
  "result": {
    "item": "futurepack:fluid_pump"
  }
}