{
  "type": "futurepack:maschin_shaped",
  "group": "futurepack",
  "pattern": [
    "ACA",
    "OFO",
    "SMS"
  ],
  "key": {
    "A": {
      "item": "futurepack:analyzer"
    },
    "C": {
      "item": "futurepack:lasercutter"
    },
    "S": {
      "item": "futurepack:coil_gold"
    },
    "F": {
      "item": "futurepack:color_iron_black"
    },
    "O": {
      "item": "futurepack:composite_metal"
    },
    "M": {
      "item": "futurepack:maschineboard"
    }
  },
  "result": {
    "item": "futurepack:improve_components_black"
  }
}