{
  "type": "futurepack:research_shapeless",
  "group": "futurepack",
  "ingredients": [
    {
      "tag": "forge:dyes/orange"
    },
    {
      "tag": "forge:dyes/orange"
    },
    {
      "tag": "forge:dyes/orange"
    },
    {
      "item": "minecraft:water_bucket"
    },
    {
      "item": "futurepack:lack_tank_empty"
    }
  ],
  "result": {
    "item": "futurepack:lack_tank_orange"
  }
}