{
  "type": "futurepack:research_shaped",
  "group": "futurepack",
  "pattern": [
    "CAC",
    "SLS",
    "PRP"
  ],
  "key": {
    "A": {
      "tag": "forge:ingots/aluminum"
    },
    "C": {
      "item": "futurepack:chip_logic"
    },
    "S": {
      "item": "futurepack:ingot_silicon"
    },
    "L": {
      "item": "futurepack:laserdiode"
    },
    "R": {
      "item": "futurepack:lense_red"
    },
    "P": {
      "tag": "forge:glass_panes"
    }
  },
  "result": {
    "item": "futurepack:lasercutter"
  }
}