{
  "type": "futurepack:research_shaped",
  "group": "futurepack",
  "pattern": [
    "AF ",
    "NLR",
    "AF "
  ],
  "key": {
    "F": {
      "item": "futurepack:polymer"
    },
    "L": {
      "item": "futurepack:laserdiode"
    },
    "R": {
      "item": "futurepack:lense_red"
    },
    "N": {
      "item": "futurepack:chip_network"
    },
    "A": {
      "tag": "forge:ingots/aluminum"
    }
  },
  "result": {
    "item": "futurepack:laser_transmitter"
  }
}