{
  "type": "futurepack:research_shaped",
  "group": "futurepack",
  "pattern": [
    "CCC"
  ],
  "key": {
    "C": {
      "item": "futurepack:metal_block"
    }
  },
  "result": {
    "item": "futurepack:metal_slab",
    "count": 6
  }
}