{
  "type": "futurepack:research_shaped",
  "group": "futurepack",
  "pattern": [
    " A ",
    "RER",
    " A "
  ],
  "key": {
    "E": {
      "item": "futurepack:energy_cell"
    },
    "R": [
      {
        "tag": "forge:dusts/redstone"
      }
    ],
    "A": [
      {
        "tag": "forge:ingots/aluminum"
      }
    ]
  },
  "result": {
    "item": "futurepack:modul_battery"
  }
}