{
  "type": "minecraft:crafting_shaped",
  "group": "futurepack",
  "pattern": [
    "BB",
    "BB"
  ],
  "key": {
    "B": {
      "item": "futurepack:ingot_retium"
    }
  },
  "result": {
    "item": "futurepack:retium_brick"
  }
}