{
  "type": "futurepack:maschin_shaped",
  "group": "futurepack",
  "pattern": [
    "IPI",
    "WAW",
    "OMO"
  ],
  "key": {
    "I": {
      "item": "futurepack:chip_industrie"
    },
    "P": {
      "item": "minecraft:piston"
    },
    "W": {
      "tag": "forge:ingots/neon"
    },
    "A": {
      "item": "futurepack:assembly_table_black"
    },
    "O": {
      "item": "futurepack:composite_metal"
    },
    "M": {
      "item": "futurepack:maschineboard"
    }
  },
  "result": {
    "item": "futurepack:opti_assembler_black"
  }
}