{
  "type": "futurepack:research_shaped",
  "group": "futurepack",
  "pattern": [
    " SK",
    "CDS",
    "TCI"
  ],
  "key": {
    "C": {
      "tag": "forge:ingots/aluminum"
    },
    "I": {
      "tag": "forge:rods/iron"
    },
    "T": {
      "item": "futurepack:lack_tank_empty"
    },
    "K": {
      "item": "futurepack:parts_copper"
    },
    "D": {
      "tag": "forge:dusts/neon"
    },
    "S": {
      "item": "futurepack:coil_neon"
    }
  },
  "result": {
    "item": "futurepack:plasma_cutter"
  }
}