{
  "type": "futurepack:maschin_shaped",
  "group": "futurepack",
  "pattern": [
    "NPN",
    "CFC",
    "VMV"
  ],
  "key": {
    "N": {
      "item": "futurepack:pipe_neon"
    },
    "C": {
      "item": "futurepack:coil_iron"
    },
    "P": {
      "item": "minecraft:light_weighted_pressure_plate"
    },
    "F": {
      "item": "futurepack:color_iron_light_gray"
    },
    "V": {
      "item": "futurepack:composite_metal"
    },
    "M": {
      "item": "futurepack:maschineboard"
    }
  },
  "result": {
    "item": "futurepack:recycler_gray"
  }
}