{
  "type": "futurepack:research_shapeless",
  "group": "futurepack",
  "ingredients": [
    {
      "tag": "forge:ingots/aluminum"
    },
    {
      "tag": "forge:rods/iron"
    }
  ],
  "result": {
    "item": "futurepack:astrofood_empty",
    "count": 6
  }
}