{
  "type": "futurepack:research_shaped",
  "group": "futurepack",
  "pattern": [
    "CPC",
    "PLP",
    "CDC"
  ],
  "key": {
    "C": {
      "item": "futurepack:composite_metal"
    },
    "P": {
      "item": "futurepack:pipe_normal"
    },
    "L": {
      "item": "futurepack:chip_logic"
    },
    "D": {
      "item": "minecraft:dropper"
    }
  },
  "result": {
    "item": "futurepack:syncronizer"
  }
}