{
  "type": "futurepack:research_shaped",
  "group": "futurepack",
  "pattern": [
    "HHC",
    "QTF",
    "HHC"
  ],
  "key": {
    "C": {
      "item": "futurepack:composite_metal"
    },
    "H": {
      "tag": "futurepack:ceramics"
    },
    "Q": {
      "item": "futurepack:parts_quartz"
    },
    "T": {
      "tag": "forge:dyes/orange"
    },
    "F": {
      "item": "futurepack:color_iron_black"
    }
  },
  "result": {
    "item": "futurepack:thruster_black_orange",
    "count": 2
  }
}