{
  "type": "tconstruct:damagable_melting",
  "conditions": [
        {
            "type": "forge:mod_loaded",
            "modid": "tconstruct"
        }
    ],
    
  "ingredient": {
    "item": "futurepack:composite_chestplate"
  },
  "result": {
    "fluid": "futurepack:molten_composite_metal",
    "amount": 1152
  },
  "temperature": 1450,
  "time": 223
}