{
  "type": "blasting",
  "ingredient": [
  	{
  	  "item": "futurepack:ore_copper"
  	},
  	{
  	  "item": "futurepack:ore_copper_m"
  	}
  ],
  "result": "futurepack:ingot_copper",
  "experience": 0.7,
  "cookingtime": 100
}