{
  "type": "futurepack:research_shaped",
  "group": "futurepack",
  "pattern": [
    "ITI",
    "IPI",
    "ITI"
  ],
  "key": {
    "I": {
      "constant": "futurepack:ingot_iron"
    },
    "T": {
      "constant": "futurepack:tank"
    },
    "P": {
      "constant": "futurepack:copperparts"
    }
  },
  "result": {
    "item": "futurepack:fermentation_barrel"
  }
}