{
	"credit": "Made with Blockbench",
	"texture_size": [64, 64],
	"textures": {
		"0": "laser_rifle",
		"particle": "laser_rifle"
	},
	"elements": [
		{
			"from": [6.85859, 10.91348, -3.74624],
			"to": [9.13304, 11.85565, 9.92201],
			"rotation": {"angle": 0, "axis": "y", "origin": [8, 10.08088, 8]},
			"faces": {
				"north": {"uv": [8, 4.75, 8.5625, 5], "texture": "#0"},
				"east": {"uv": [5, 1.5, 8.4375, 1.75], "texture": "#0"},
				"south": {"uv": [8, 7.25, 8.5625, 7.5], "texture": "#0"},
				"west": {"uv": [5, 1.5, 8.4375, 1.75], "texture": "#0"},
				"up": {"uv": [1.3125, 7.6875, 0.75, 4.25], "texture": "#0"},
				"down": {"uv": [4.8125, 0.75, 4.25, 4.1875], "texture": "#0"}
			}
		},
		{
			"from": [5.938, 10.52863, -3.74573],
			"to": [8.21244, 11.4708, 9.92078],
			"rotation": {"angle": -45, "axis": "z", "origin": [8, 10.08088, 8]},
			"faces": {
				"north": {"uv": [8.5, 4, 9.0625, 4.25], "texture": "#0"},
				"east": {"uv": [5, 1.75, 8.4375, 1.5], "texture": "#0"},
				"south": {"uv": [8.75, 3.25, 9.3125, 3.5], "texture": "#0"},
				"west": {"uv": [5, 1.75, 8.4375, 1.5], "texture": "#0"},
				"up": {"uv": [2.0625, 7.6875, 1.5, 4.25], "texture": "#0"},
				"down": {"uv": [2.8125, 4.25, 2.25, 7.6875], "texture": "#0"}
			}
		},
		{
			"from": [7.78154, 10.53465, -3.74486],
			"to": [10.05598, 11.47681, 9.92166],
			"rotation": {"angle": 45, "axis": "z", "origin": [8, 10.08088, 8]},
			"faces": {
				"north": {"uv": [8.75, 3.5, 9.3125, 3.75], "texture": "#0"},
				"east": {"uv": [5, 1.75, 8.4375, 1.5], "texture": "#0"},
				"south": {"uv": [8.75, 3.75, 9.3125, 4], "texture": "#0"},
				"west": {"uv": [5, 1.75, 8.4375, 1.5], "texture": "#0"},
				"up": {"uv": [3.5625, 7.6875, 3, 4.25], "texture": "#0"},
				"down": {"uv": [4.3125, 4.25, 3.75, 7.6875], "texture": "#0"}
			}
		},
		{
			"from": [7.52466, 10.24727, -3.74808],
			"to": [8.46683, 12.52171, 9.92939],
			"rotation": {"angle": 0, "axis": "y", "origin": [8, 10.08088, 8]},
			"faces": {
				"north": {"uv": [8.75, 4.25, 9, 4.8125], "texture": "#0"},
				"east": {"uv": [4.5, 4.25, 7.9375, 4.8125], "texture": "#0"},
				"south": {"uv": [8.75, 6.25, 9, 6.8125], "texture": "#0"},
				"west": {"uv": [5, 0.75, 8.4375, 1.3125], "texture": "#0"},
				"up": {"uv": [8.4375, 1.5, 5, 1.75], "rotation": 90, "texture": "#0"},
				"down": {"uv": [8.4375, 1.5, 5, 1.75], "rotation": 90, "texture": "#0"}
			}
		},
		{
			"from": [6.64087, 11.02235, -3.74624],
			"to": [9.35076, 11.74678, 9.92201],
			"rotation": {"angle": 0, "axis": "y", "origin": [8, 10.08088, 8]},
			"faces": {
				"north": {"uv": [8.75, 7.25, 9.4375, 7.4375], "texture": "#0"},
				"east": {"uv": [5, 4, 8.4375, 4.1875], "texture": "#0"},
				"south": {"uv": [7.75, 8.75, 8.4375, 8.9375], "texture": "#0"},
				"west": {"uv": [8.4375, 4, 5, 4.1875], "texture": "#0"},
				"up": {"uv": [0.6875, 3.4375, 0, 0], "texture": "#0"},
				"down": {"uv": [1.4375, 0, 0.75, 3.4375], "texture": "#0"}
			}
		},
		{
			"from": [5.17639, 7.48676, -3.74573],
			"to": [7.88628, 8.2112, 9.92251],
			"rotation": {"angle": -45, "axis": "z", "origin": [11.53133, 7.84898, 3.08839]},
			"faces": {
				"north": {"uv": [8.75, 7.25, 9.4375, 7.4375], "texture": "#0"},
				"east": {"uv": [5, 4, 8.4375, 4.1875], "texture": "#0"},
				"south": {"uv": [7.75, 8.75, 8.4375, 8.9375], "texture": "#0"},
				"west": {"uv": [8.4375, 4, 5, 4.1875], "texture": "#0"},
				"up": {"uv": [0.6875, 3.4375, 0, 0], "texture": "#0"},
				"down": {"uv": [1.4375, 0, 0.75, 3.4375], "texture": "#0"}
			}
		},
		{
			"from": [8.10521, 7.48676, -3.74486],
			"to": [10.81511, 8.2112, 9.92339],
			"rotation": {"angle": 45, "axis": "z", "origin": [4.46016, 7.84898, 3.08927]},
			"faces": {
				"north": {"uv": [8.75, 7.25, 9.4375, 7.4375], "texture": "#0"},
				"east": {"uv": [5, 4, 8.4375, 4.1875], "texture": "#0"},
				"south": {"uv": [7.75, 8.75, 8.4375, 8.9375], "texture": "#0"},
				"west": {"uv": [8.4375, 4, 5, 4.1875], "texture": "#0"},
				"up": {"uv": [0.6875, 3.4375, 0, 0], "texture": "#0"},
				"down": {"uv": [1.4375, 0, 0.75, 3.4375], "texture": "#0"}
			}
		},
		{
			"from": [7.63353, 10.02955, -3.74808],
			"to": [8.35796, 12.73944, 9.92016],
			"rotation": {"angle": 0, "axis": "y", "origin": [7.99574, 8.38449, 3.08604]},
			"faces": {
				"north": {"uv": [8.75, 7.25, 9.4375, 7.4375], "rotation": 90, "texture": "#0"},
				"east": {"uv": [1.4375, 0, 0.75, 3.4375], "rotation": 270, "texture": "#0"},
				"south": {"uv": [7.75, 8.75, 8.4375, 8.9375], "rotation": 270, "texture": "#0"},
				"west": {"uv": [0.6875, 3.4375, 0, 0], "rotation": 270, "texture": "#0"},
				"up": {"uv": [5, 4, 8.4375, 4.1875], "rotation": 270, "texture": "#0"},
				"down": {"uv": [8.4375, 4, 5, 4.1875], "rotation": 270, "texture": "#0"}
			}
		},
		{
			"from": [6.57112, 10.7944, 9.91035],
			"to": [9.42054, 11.97474, 10.58113],
			"rotation": {"angle": 0, "axis": "y", "origin": [8, 10.08088, 8]},
			"faces": {
				"north": {"uv": [8.6875, 3.5, 8, 3.8125], "texture": "#0"},
				"east": {"uv": [1, 9.75, 1.1875, 10.0625], "texture": "#0"},
				"south": {"uv": [8, 3.5, 8.6875, 3.8125], "texture": "#0"},
				"west": {"uv": [1.1875, 9.75, 1, 10.0625], "texture": "#0"},
				"up": {"uv": [9.4375, 8.6875, 8.75, 8.5], "texture": "#0"},
				"down": {"uv": [9.6875, 0, 9, 0.1875], "texture": "#0"}
			}
		},
		{
			"from": [5.65052, 10.40955, 9.91098],
			"to": [8.49994, 11.58989, 10.5796],
			"rotation": {"angle": -45, "axis": "z", "origin": [8, 10.08088, 8]},
			"faces": {
				"north": {"uv": [8.6875, 6.25, 8, 6.5625], "texture": "#0"},
				"east": {"uv": [9.75, 2.75, 9.9375, 3.0625], "texture": "#0"},
				"south": {"uv": [8, 6.25, 8.6875, 6.5625], "texture": "#0"},
				"west": {"uv": [9.9375, 3.25, 9.75, 3.5625], "texture": "#0"},
				"up": {"uv": [9.6875, 0.4375, 9, 0.25], "texture": "#0"},
				"down": {"uv": [9.6875, 1.25, 9, 1.4375], "texture": "#0"}
			}
		},
		{
			"from": [7.49404, 10.41557, 9.91208],
			"to": [10.34346, 11.59591, 10.5807],
			"rotation": {"angle": 45, "axis": "z", "origin": [8, 10.08088, 8]},
			"faces": {
				"north": {"uv": [0.6875, 8.25, 0, 8.5625], "texture": "#0"},
				"east": {"uv": [9.75, 3.25, 9.9375, 3.5625], "texture": "#0"},
				"south": {"uv": [0, 8.25, 0.6875, 8.5625], "texture": "#0"},
				"west": {"uv": [9.9375, 2.75, 9.75, 3.0625], "texture": "#0"},
				"up": {"uv": [9.6875, 1.6875, 9, 1.5], "texture": "#0"},
				"down": {"uv": [9.6875, 1.75, 9, 1.9375], "texture": "#0"}
			}
		},
		{
			"from": [7.40557, 9.95977, 9.90804],
			"to": [8.58592, 12.8092, 10.59038],
			"rotation": {"angle": 0, "axis": "y", "origin": [8, 10.08088, 8]},
			"faces": {
				"north": {"uv": [1.0625, 8.25, 0.75, 8.9375], "texture": "#0"},
				"east": {"uv": [9, 2, 9.1875, 2.6875], "texture": "#0"},
				"south": {"uv": [0.75, 8.25, 1.0625, 8.9375], "texture": "#0"},
				"west": {"uv": [3.5, 9, 3.6875, 9.6875], "texture": "#0"},
				"up": {"uv": [4.0625, 9.9375, 3.75, 9.75], "texture": "#0"},
				"down": {"uv": [10.0625, 3.75, 9.75, 3.9375], "texture": "#0"}
			}
		},
		{
			"from": [6.57112, 10.7944, -4.40598],
			"to": [9.42054, 11.97474, -3.73519],
			"rotation": {"angle": 0, "axis": "y", "origin": [8, 10.08088, 8]},
			"faces": {
				"north": {"uv": [8.6875, 3.5, 8, 3.8125], "texture": "#0"},
				"east": {"uv": [1, 9.75, 1.1875, 10.0625], "texture": "#0"},
				"south": {"uv": [8, 3.5, 8.6875, 3.8125], "texture": "#0"},
				"west": {"uv": [1.1875, 9.75, 1, 10.0625], "texture": "#0"},
				"up": {"uv": [9.6875, 4.4375, 9, 4.25], "texture": "#0"},
				"down": {"uv": [5.1875, 9, 4.5, 9.1875], "texture": "#0"}
			}
		},
		{
			"from": [5.65052, 10.40955, -4.40534],
			"to": [8.49994, 11.58989, -3.73673],
			"rotation": {"angle": -45, "axis": "z", "origin": [8, 10.08088, 8]},
			"faces": {
				"north": {"uv": [8.6875, 6.25, 8, 6.5625], "texture": "#0"},
				"east": {"uv": [9.75, 2.75, 9.9375, 3.0625], "texture": "#0"},
				"south": {"uv": [8, 6.25, 8.6875, 6.5625], "texture": "#0"},
				"west": {"uv": [9.9375, 3.25, 9.75, 3.5625], "texture": "#0"},
				"up": {"uv": [9.6875, 4.6875, 9, 4.5], "texture": "#0"},
				"down": {"uv": [9.6875, 4.75, 9, 4.9375], "texture": "#0"}
			}
		},
		{
			"from": [7.49404, 10.41557, -4.40425],
			"to": [10.34346, 11.59591, -3.73563],
			"rotation": {"angle": 45, "axis": "z", "origin": [8, 10.08088, 8]},
			"faces": {
				"north": {"uv": [0.6875, 8.25, 0, 8.5625], "texture": "#0"},
				"east": {"uv": [9.75, 3.25, 9.9375, 3.5625], "texture": "#0"},
				"south": {"uv": [0, 8.25, 0.6875, 8.5625], "texture": "#0"},
				"west": {"uv": [9.9375, 2.75, 9.75, 3.0625], "texture": "#0"},
				"up": {"uv": [9.6875, 5.1875, 9, 5], "texture": "#0"},
				"down": {"uv": [9.6875, 5.25, 9, 5.4375], "texture": "#0"}
			}
		},
		{
			"from": [7.40557, 9.95977, -4.40829],
			"to": [8.58592, 12.8092, -3.72595],
			"rotation": {"angle": 0, "axis": "y", "origin": [8, 10.08088, 8]},
			"faces": {
				"north": {"uv": [1.0625, 8.25, 0.75, 8.9375], "texture": "#0"},
				"east": {"uv": [3.75, 9, 3.9375, 9.6875], "texture": "#0"},
				"south": {"uv": [0.75, 8.25, 1.0625, 8.9375], "texture": "#0"},
				"west": {"uv": [5.25, 9, 5.4375, 9.6875], "texture": "#0"},
				"up": {"uv": [4.0625, 9.9375, 3.75, 9.75], "texture": "#0"},
				"down": {"uv": [10.0625, 3.75, 9.75, 3.9375], "texture": "#0"}
			}
		},
		{
			"from": [7.41415, 10.76977, -5.09063],
			"to": [8.5945, 11.95011, -4.40829],
			"rotation": {"angle": 0, "axis": "y", "origin": [8, 10.08088, 8]},
			"faces": {
				"north": {"uv": [9.25, 0.75, 9.5625, 1.0625], "texture": "#0"},
				"east": {"uv": [9.75, 5.5, 9.9375, 5.8125], "texture": "#0"},
				"south": {"uv": [4, 9.25, 4.3125, 9.5625], "texture": "#0"},
				"west": {"uv": [9.9375, 5.5, 9.75, 5.8125], "texture": "#0"},
				"up": {"uv": [10.0625, 6.1875, 9.75, 6], "texture": "#0"},
				"down": {"uv": [10.0625, 6.25, 9.75, 6.4375], "texture": "#0"}
			}
		},
		{
			"from": [7.43047, 8.87831, 10.78646],
			"to": [8.56447, 9.54656, 11.92046],
			"rotation": {"angle": 0, "axis": "y", "origin": [8, 10.08088, 8]},
			"faces": {
				"north": {"uv": [7, 9.75, 7.3125, 9.9375], "texture": "#0"},
				"east": {"uv": [7.5, 9.75, 7.8125, 9.9375], "texture": "#0"},
				"south": {"uv": [9.75, 7.5, 10.0625, 7.6875], "texture": "#0"},
				"west": {"uv": [7.8125, 9.75, 7.5, 9.9375], "texture": "#0"},
				"up": {"uv": [4.8125, 9.5625, 4.5, 9.25], "texture": "#0"},
				"down": {"uv": [9.5625, 5.5, 9.25, 5.8125], "texture": "#0"}
			}
		},
		{
			"from": [7.43047, 10.19456, 1.30946],
			"to": [8.56447, 11.40956, 4.22546],
			"rotation": {"angle": 0, "axis": "y", "origin": [8, 10.08088, 8]},
			"faces": {
				"north": {"uv": [9.25, 6, 9.5625, 6.3125], "texture": "#0"},
				"east": {"uv": [7, 7.75, 7.75, 8.0625], "texture": "#0"},
				"south": {"uv": [8.5, 9.25, 8.8125, 9.5625], "texture": "#0"},
				"west": {"uv": [7.75, 7.75, 7, 8.0625], "texture": "#0"},
				"up": {"uv": [4.0625, 3.5, 3.75, 2.75], "texture": "#0"},
				"down": {"uv": [4.3125, 7.75, 4, 8.5], "texture": "#0"}
			}
		},
		{
			"from": [7.06597, 9.54656, 4.22546],
			"to": [8.92897, 11.40956, 11.92046],
			"rotation": {"angle": 0, "axis": "y", "origin": [8, 10.08088, 8]},
			"faces": {
				"north": {"uv": [4.5, 8.5, 4.9375, 8.9375], "texture": "#0"},
				"east": {"uv": [5, 3, 6.9375, 3.4375], "texture": "#0"},
				"south": {"uv": [6, 8.5, 6.4375, 8.9375], "texture": "#0"},
				"west": {"uv": [6.9375, 3, 5, 3.4375], "texture": "#0"},
				"up": {"uv": [4.1875, 2.6875, 3.75, 0.75], "texture": "#0"},
				"down": {"uv": [5.4375, 5, 5, 6.9375], "texture": "#0"}
			}
		},
		{
			"from": [7.55197, 9.32381, 5.88596],
			"to": [8.44297, 9.54656, 8.33621],
			"rotation": {"angle": 0, "axis": "y", "origin": [8, 10.08088, 8]},
			"faces": {
				"north": {"uv": [7.5, 10.5, 7.75, 10.5625], "texture": "#0"},
				"east": {"uv": [10, 7.25, 10.625, 7.3125], "texture": "#0"},
				"south": {"uv": [7.75, 10.5, 8, 10.5625], "texture": "#0"},
				"west": {"uv": [10.625, 7.25, 10, 7.3125], "texture": "#0"},
				"up": {"uv": [0.75, 7.625, 0.5, 7], "texture": "#0"},
				"down": {"uv": [2, 8.75, 1.75, 9.375], "texture": "#0"}
			}
		},
		{
			"from": [7.55197, 9.08081, 8.33621],
			"to": [8.44297, 9.54656, 10.78646],
			"rotation": {"angle": 0, "axis": "y", "origin": [8, 10.08088, 8]},
			"faces": {
				"north": {"uv": [10.25, 2, 10.5, 2.125], "texture": "#0"},
				"east": {"uv": [9.25, 4, 9.875, 4.125], "texture": "#0"},
				"south": {"uv": [10.25, 2.25, 10.5, 2.375], "texture": "#0"},
				"west": {"uv": [9.875, 4, 9.25, 4.125], "texture": "#0"},
				"up": {"uv": [2.25, 9.375, 2, 8.75], "texture": "#0"},
				"down": {"uv": [2.5, 8.75, 2.25, 9.375], "texture": "#0"}
			}
		},
		{
			"from": [7.43047, 9.70856, 1.30946],
			"to": [8.56447, 10.19456, 5.88596],
			"rotation": {"angle": 0, "axis": "y", "origin": [8, 10.08088, 8]},
			"faces": {
				"north": {"uv": [10, 7.75, 10.3125, 7.875], "texture": "#0"},
				"east": {"uv": [6.5, 8.75, 7.625, 8.875], "texture": "#0"},
				"south": {"uv": [8.25, 10, 8.5625, 10.125], "texture": "#0"},
				"west": {"uv": [7.625, 8.75, 6.5, 8.875], "texture": "#0"},
				"up": {"uv": [0.3125, 8.125, 0, 7], "texture": "#0"},
				"down": {"uv": [5.3125, 7, 5, 8.125], "texture": "#0"}
			}
		},
		{
			"from": [7.47097, 11.40956, 4.22546],
			"to": [8.52397, 11.85506, 13.13546],
			"rotation": {"angle": 0, "axis": "y", "origin": [8, 10.08088, 8]},
			"faces": {
				"north": {"uv": [10.25, 2.5, 10.5, 2.625], "texture": "#0"},
				"east": {"uv": [7.25, 0.5, 9.5, 0.625], "texture": "#0"},
				"south": {"uv": [10.25, 2.75, 10.5, 2.875], "texture": "#0"},
				"west": {"uv": [9.5, 0.5, 7.25, 0.625], "texture": "#0"},
				"up": {"uv": [6.25, 8.5, 6, 6.25], "texture": "#0"},
				"down": {"uv": [6.5, 6.25, 6.25, 8.5], "texture": "#0"}
			}
		},
		{
			"from": [7.47603, 9.54656, 11.92046],
			"to": [8.52903, 11.40956, 14.35046],
			"rotation": {"angle": 0, "axis": "y", "origin": [8, 10.08088, 8]},
			"faces": {
				"north": {"uv": [8, 9, 8.25, 9.4375], "texture": "#0"},
				"east": {"uv": [0.5, 7.75, 1.125, 8.1875], "texture": "#0"},
				"south": {"uv": [8.25, 9, 8.5, 9.4375], "texture": "#0"},
				"west": {"uv": [1.125, 7.75, 0.5, 8.1875], "texture": "#0"},
				"up": {"uv": [2.75, 9.375, 2.5, 8.75], "texture": "#0"},
				"down": {"uv": [3, 8.75, 2.75, 9.375], "texture": "#0"}
			}
		},
		{
			"from": [7.47097, 11.85506, 10.50296],
			"to": [8.52397, 12.30056, 12.52796],
			"rotation": {"angle": 0, "axis": "y", "origin": [8, 10.08088, 8]},
			"faces": {
				"north": {"uv": [3, 10.25, 3.25, 10.375], "texture": "#0"},
				"east": {"uv": [9.75, 1.75, 10.25, 1.875], "texture": "#0"},
				"south": {"uv": [10.25, 3, 10.5, 3.125], "texture": "#0"},
				"west": {"uv": [10.25, 1.75, 9.75, 1.875], "texture": "#0"},
				"up": {"uv": [9.25, 6, 9, 5.5], "texture": "#0"},
				"down": {"uv": [6.25, 9, 6, 9.5], "texture": "#0"}
			}
		},
		{
			"from": [7.47097, 12.30056, 4.83296],
			"to": [8.52397, 13.15106, 11.17046],
			"rotation": {"angle": 0, "axis": "y", "origin": [8, 10.08088, 8]},
			"faces": {
				"north": {"uv": [8.5, 2.75, 8.75, 2.9375], "texture": "#0"},
				"east": {"uv": [7.25, 0, 8.8125, 0.1875], "texture": "#0"},
				"south": {"uv": [9.25, 3, 9.5, 3.1875], "texture": "#0"},
				"west": {"uv": [8.8125, 0, 7.25, 0.1875], "texture": "#0"},
				"up": {"uv": [6.75, 7.8125, 6.5, 6.25], "texture": "#0"},
				"down": {"uv": [7, 6.25, 6.75, 7.8125], "texture": "#0"}
			}
		},
		{
			"from": [7.676, 9.54656, 14.35046],
			"to": [8.324, 11.40956, 16.78046],
			"rotation": {"angle": 0, "axis": "y", "origin": [8, 10.08088, 8]},
			"faces": {
				"north": {"uv": [1.75, 9.5, 1.9375, 9.9375], "texture": "#0"},
				"east": {"uv": [2, 7.75, 2.625, 8.1875], "texture": "#0"},
				"south": {"uv": [2, 9.5, 2.1875, 9.9375], "texture": "#0"},
				"west": {"uv": [2.625, 7.75, 2, 8.1875], "texture": "#0"},
				"up": {"uv": [9.1875, 6.625, 9, 6], "texture": "#0"},
				"down": {"uv": [6.4375, 9, 6.25, 9.625], "texture": "#0"}
			}
		},
		{
			"from": [7.676, 8.16956, 19.08896],
			"to": [8.324, 8.97956, 20.54696],
			"rotation": {"angle": 0, "axis": "y", "origin": [8, 10.08088, 8]},
			"faces": {
				"north": {"uv": [0.5, 10.25, 0.6875, 10.4375], "texture": "#0"},
				"east": {"uv": [8, 9.5, 8.375, 9.6875], "texture": "#0"},
				"south": {"uv": [10.25, 0.5, 10.4375, 0.6875], "texture": "#0"},
				"west": {"uv": [8.375, 9.5, 8, 9.6875], "texture": "#0"},
				"up": {"uv": [9.6875, 9.375, 9.5, 9], "texture": "#0"},
				"down": {"uv": [9.6875, 9.5, 9.5, 9.875], "texture": "#0"}
			}
		},
		{
			"from": [7.676, 8.97956, 19.06871],
			"to": [8.324, 9.46556, 20.54696],
			"rotation": {"angle": 0, "axis": "y", "origin": [8, 10.08088, 8]},
			"faces": {
				"north": {"uv": [5, 10.25, 5.1875, 10.375], "texture": "#0"},
				"east": {"uv": [10, 1, 10.375, 1.125], "texture": "#0"},
				"south": {"uv": [5.75, 10.25, 5.9375, 10.375], "texture": "#0"},
				"west": {"uv": [10.375, 1, 10, 1.125], "texture": "#0"},
				"up": {"uv": [0.1875, 10.125, 0, 9.75], "texture": "#0"},
				"down": {"uv": [9.9375, 0, 9.75, 0.375], "texture": "#0"}
			}
		},
		{
			"from": [7.676, 9.46556, 18.72446],
			"to": [8.324, 9.78956, 20.54696],
			"rotation": {"angle": 0, "axis": "y", "origin": [8, 10.08088, 8]},
			"faces": {
				"north": {"uv": [9.75, 10.5, 9.9375, 10.5625], "texture": "#0"},
				"east": {"uv": [10.25, 4.25, 10.6875, 4.3125], "texture": "#0"},
				"south": {"uv": [10.5, 9.75, 10.6875, 9.8125], "texture": "#0"},
				"west": {"uv": [10.6875, 4.25, 10.25, 4.3125], "texture": "#0"},
				"up": {"uv": [9.6875, 2.4375, 9.5, 2], "texture": "#0"},
				"down": {"uv": [2.4375, 9.5, 2.25, 9.9375], "texture": "#0"}
			}
		},
		{
			"from": [7.676, 9.78956, 16.78046],
			"to": [8.324, 11.40956, 20.54696],
			"rotation": {"angle": 0, "axis": "y", "origin": [8, 10.08088, 8]},
			"faces": {
				"north": {"uv": [0.75, 9.75, 0.9375, 10.125], "texture": "#0"},
				"east": {"uv": [7, 3, 7.9375, 3.375], "texture": "#0"},
				"south": {"uv": [9.75, 0.75, 9.9375, 1.125], "texture": "#0"},
				"west": {"uv": [7.9375, 3, 7, 3.375], "texture": "#0"},
				"up": {"uv": [8.6875, 8.6875, 8.5, 7.75], "texture": "#0"},
				"down": {"uv": [0.1875, 8.75, 0, 9.6875], "texture": "#0"}
			}
		},
		{
			"from": [7.433, 11.73356, 14.35046],
			"to": [8.567, 11.93606, 16.53746],
			"rotation": {"angle": 0, "axis": "y", "origin": [8, 10.08088, 8]},
			"faces": {
				"north": {"uv": [2, 10.5, 2.3125, 10.5625], "texture": "#0"},
				"east": {"uv": [0.75, 10.25, 1.3125, 10.3125], "texture": "#0"},
				"south": {"uv": [10.5, 2, 10.8125, 2.0625], "texture": "#0"},
				"west": {"uv": [0.75, 10.25, 1.3125, 10.3125], "texture": "#0"},
				"up": {"uv": [0.5625, 9.3125, 0.25, 8.75], "texture": "#0"},
				"down": {"uv": [1.5625, 8.75, 1.25, 9.3125], "texture": "#0"}
			}
		},
		{
			"from": [7.433, 11.40956, 14.35046],
			"to": [8.567, 11.73356, 16.78046],
			"rotation": {"angle": 0, "axis": "y", "origin": [8, 10.08088, 8]},
			"faces": {
				"north": {"uv": [10.5, 2.25, 10.8125, 2.3125], "texture": "#0"},
				"east": {"uv": [10, 8.5, 10.625, 8.5625], "texture": "#0"},
				"south": {"uv": [2.5, 10.5, 2.8125, 10.5625], "texture": "#0"},
				"west": {"uv": [10.625, 8.5, 10, 8.5625], "texture": "#0"},
				"up": {"uv": [8.8125, 2.625, 8.5, 2], "texture": "#0"},
				"down": {"uv": [4.3125, 8.5, 4, 9.125], "texture": "#0"}
			}
		},
		{
			"from": [7.433, 10.35656, 16.78046],
			"to": [8.567, 10.59956, 17.36771],
			"rotation": {"angle": 0, "axis": "y", "origin": [8, 10.08088, 8]},
			"faces": {
				"north": {"uv": [10.5, 2.5, 10.8125, 2.5625], "texture": "#0"},
				"east": {"uv": [5, 10.75, 5.125, 10.8125], "texture": "#0"},
				"south": {"uv": [10.5, 2.75, 10.8125, 2.8125], "texture": "#0"},
				"west": {"uv": [5.125, 10.75, 5, 10.8125], "texture": "#0"},
				"up": {"uv": [9.8125, 10.125, 9.5, 10], "texture": "#0"},
				"down": {"uv": [10.3125, 10, 10, 10.125], "texture": "#0"}
			}
		},
		{
			"from": [7.433, 10.59956, 16.78046],
			"to": [8.567, 10.84256, 17.61071],
			"rotation": {"angle": 0, "axis": "y", "origin": [8, 10.08088, 8]},
			"faces": {
				"north": {"uv": [3, 10.5, 3.3125, 10.5625], "texture": "#0"},
				"east": {"uv": [10, 10.5, 10.1875, 10.5625], "texture": "#0"},
				"south": {"uv": [10.5, 3, 10.8125, 3.0625], "texture": "#0"},
				"west": {"uv": [10.1875, 10.5, 10, 10.5625], "texture": "#0"},
				"up": {"uv": [8.8125, 9.9375, 8.5, 9.75], "texture": "#0"},
				"down": {"uv": [10.0625, 8.75, 9.75, 8.9375], "texture": "#0"}
			}
		},
		{
			"from": [7.433, 10.84256, 16.78046],
			"to": [8.567, 11.73356, 17.91446],
			"rotation": {"angle": 0, "axis": "y", "origin": [8, 10.08088, 8]},
			"faces": {
				"north": {"uv": [9.25, 7.5, 9.5625, 7.75], "texture": "#0"},
				"east": {"uv": [9.25, 8.75, 9.5625, 9], "texture": "#0"},
				"south": {"uv": [9.5, 0.5, 9.8125, 0.75], "texture": "#0"},
				"west": {"uv": [9.5625, 8.75, 9.25, 9], "texture": "#0"},
				"up": {"uv": [9.3125, 9.5625, 9, 9.25], "texture": "#0"},
				"down": {"uv": [0.5625, 9.5, 0.25, 9.8125], "texture": "#0"}
			}
		},
		{
			"from": [7.433, 11.08556, 14.83646],
			"to": [8.567, 11.40956, 16.78046],
			"rotation": {"angle": 0, "axis": "y", "origin": [8, 10.08088, 8]},
			"faces": {
				"north": {"uv": [3.5, 10.5, 3.8125, 10.5625], "texture": "#0"},
				"east": {"uv": [3.25, 10.25, 3.75, 10.3125], "texture": "#0"},
				"south": {"uv": [4, 10.5, 4.3125, 10.5625], "texture": "#0"},
				"west": {"uv": [3.75, 10.25, 3.25, 10.3125], "texture": "#0"},
				"up": {"uv": [9.0625, 3.25, 8.75, 2.75], "texture": "#0"},
				"down": {"uv": [3.3125, 8.75, 3, 9.25], "texture": "#0"}
			}
		},
		{
			"from": [7.433, 10.35656, 15.16046],
			"to": [8.567, 11.08556, 16.78046],
			"rotation": {"angle": 0, "axis": "y", "origin": [8, 10.08088, 8]},
			"faces": {
				"north": {"uv": [9, 9.75, 9.3125, 9.9375], "texture": "#0"},
				"east": {"uv": [9.75, 1.25, 10.125, 1.4375], "texture": "#0"},
				"south": {"uv": [9.75, 9, 10.0625, 9.1875], "texture": "#0"},
				"west": {"uv": [10.125, 1.25, 9.75, 1.4375], "texture": "#0"},
				"up": {"uv": [6.8125, 9.375, 6.5, 9], "texture": "#0"},
				"down": {"uv": [7.3125, 9, 7, 9.375], "texture": "#0"}
			}
		},
		{
			"from": [7.433, 7.60256, 19.53446],
			"to": [8.567, 11.73356, 20.58746],
			"rotation": {"angle": 0, "axis": "y", "origin": [8, 10.08088, 8]},
			"faces": {
				"north": {"uv": [7, 6.25, 7.3125, 7.3125], "texture": "#0"},
				"east": {"uv": [3.5, 7.75, 3.75, 8.8125], "texture": "#0"},
				"south": {"uv": [7.5, 6.25, 7.8125, 7.3125], "texture": "#0"},
				"west": {"uv": [3.75, 7.75, 3.5, 8.8125], "texture": "#0"},
				"up": {"uv": [9.8125, 7.5, 9.5, 7.25], "texture": "#0"},
				"down": {"uv": [9.8125, 7.75, 9.5, 8], "texture": "#0"}
			}
		},
		{
			"from": [7.433, 10.59956, 20.58746],
			"to": [8.567, 11.40956, 20.91146],
			"rotation": {"angle": 0, "axis": "y", "origin": [8, 10.08088, 8]},
			"faces": {
				"north": {"uv": [9.75, 9.25, 10.0625, 9.4375], "texture": "#0"},
				"east": {"uv": [10.25, 10.5, 10.3125, 10.6875], "texture": "#0"},
				"south": {"uv": [9.75, 9.5, 10.0625, 9.6875], "texture": "#0"},
				"west": {"uv": [10.5, 10.5, 10.5625, 10.6875], "texture": "#0"},
				"up": {"uv": [10.8125, 4.0625, 10.5, 4], "texture": "#0"},
				"down": {"uv": [4.8125, 10.5, 4.5, 10.5625], "texture": "#0"}
			}
		},
		{
			"from": [7.433, 7.60256, 20.58746],
			"to": [8.567, 8.41256, 20.91146],
			"rotation": {"angle": 0, "axis": "y", "origin": [8, 10.08088, 8]},
			"faces": {
				"north": {"uv": [9.75, 9.75, 10.0625, 9.9375], "texture": "#0"},
				"east": {"uv": [10.5, 10.5, 10.5625, 10.6875], "texture": "#0"},
				"south": {"uv": [10, 0, 10.3125, 0.1875], "texture": "#0"},
				"west": {"uv": [10.5, 10.5, 10.5625, 10.6875], "texture": "#0"},
				"up": {"uv": [5.3125, 10.5625, 5, 10.5], "texture": "#0"},
				"down": {"uv": [10.8125, 5, 10.5, 5.0625], "texture": "#0"}
			}
		},
		{
			"from": [7.433, 7.35956, 19.85846],
			"to": [8.567, 7.60256, 20.58746],
			"rotation": {"angle": 0, "axis": "y", "origin": [8, 10.08088, 8]},
			"faces": {
				"north": {"uv": [5.5, 10.5, 5.8125, 10.5625], "texture": "#0"},
				"east": {"uv": [10.75, 0, 10.9375, 0.0625], "texture": "#0"},
				"south": {"uv": [6, 10.5, 6.3125, 10.5625], "texture": "#0"},
				"west": {"uv": [10.75, 0, 10.9375, 0.0625], "texture": "#0"},
				"up": {"uv": [0.5625, 10.1875, 0.25, 10], "texture": "#0"},
				"down": {"uv": [10.3125, 0.25, 10, 0.4375], "texture": "#0"}
			}
		},
		{
			"from": [7.676, 6.42806, 15.64646],
			"to": [8.324, 6.75206, 17.30696],
			"rotation": {"angle": 0, "axis": "y", "origin": [8, 10.08088, 8]},
			"faces": {
				"north": {"uv": [10.75, 0.25, 10.9375, 0.3125], "texture": "#0"},
				"east": {"uv": [10.25, 4.5, 10.6875, 4.5625], "texture": "#0"},
				"south": {"uv": [0.5, 10.75, 0.6875, 10.8125], "texture": "#0"},
				"west": {"uv": [10.6875, 4.5, 10.25, 4.5625], "texture": "#0"},
				"up": {"uv": [2.6875, 9.9375, 2.5, 9.5], "texture": "#0"},
				"down": {"uv": [9.6875, 2.5, 9.5, 2.9375], "texture": "#0"}
			}
		},
		{
			"from": [7.676, 7.80506, 17.91446],
			"to": [8.324, 8.16956, 19.73696],
			"rotation": {"angle": 0, "axis": "y", "origin": [8, 10.08088, 8]},
			"faces": {
				"north": {"uv": [0.75, 10.75, 0.9375, 10.8125], "texture": "#0"},
				"east": {"uv": [10.25, 5.25, 10.6875, 5.3125], "texture": "#0"},
				"south": {"uv": [1, 10.75, 1.1875, 10.8125], "texture": "#0"},
				"west": {"uv": [10.6875, 5.25, 10.25, 5.3125], "texture": "#0"},
				"up": {"uv": [2.9375, 9.9375, 2.75, 9.5], "texture": "#0"},
				"down": {"uv": [9.6875, 3, 9.5, 3.4375], "texture": "#0"}
			}
		},
		{
			"from": [7.676, 7.52156, 17.10446],
			"to": [8.324, 7.80506, 18.92696],
			"rotation": {"angle": 0, "axis": "y", "origin": [8, 10.08088, 8]},
			"faces": {
				"north": {"uv": [1.25, 10.75, 1.4375, 10.8125], "texture": "#0"},
				"east": {"uv": [10.25, 5.75, 10.6875, 5.8125], "texture": "#0"},
				"south": {"uv": [1.5, 10.75, 1.6875, 10.8125], "texture": "#0"},
				"west": {"uv": [10.6875, 5.75, 10.25, 5.8125], "texture": "#0"},
				"up": {"uv": [9.6875, 3.9375, 9.5, 3.5], "texture": "#0"},
				"down": {"uv": [6.1875, 9.5, 6, 9.9375], "texture": "#0"}
			}
		},
		{
			"from": [7.676, 7.01531, 17.71196],
			"to": [8.324, 7.27856, 18.15746],
			"rotation": {"angle": 0, "axis": "y", "origin": [8, 10.08088, 8]},
			"faces": {
				"north": {"uv": [1.75, 10.75, 1.9375, 10.8125], "texture": "#0"},
				"east": {"uv": [10.75, 5.25, 10.875, 5.3125], "texture": "#0"},
				"south": {"uv": [10.75, 1.75, 10.9375, 1.8125], "texture": "#0"},
				"west": {"uv": [10.75, 5.25, 10.875, 5.3125], "texture": "#0"},
				"up": {"uv": [6.4375, 10.375, 6.25, 10.25], "texture": "#0"},
				"down": {"uv": [9.9375, 10.25, 9.75, 10.375], "texture": "#0"}
			}
		},
		{
			"from": [7.676, 8.16956, 18.31946],
			"to": [8.324, 8.37206, 19.08896],
			"rotation": {"angle": 0, "axis": "y", "origin": [8, 10.08088, 8]},
			"faces": {
				"north": {"uv": [2, 10.75, 2.1875, 10.8125], "texture": "#0"},
				"east": {"uv": [2.25, 10.75, 2.4375, 10.8125], "texture": "#0"},
				"south": {"uv": [2.5, 10.75, 2.6875, 10.8125], "texture": "#0"},
				"west": {"uv": [2.4375, 10.75, 2.25, 10.8125], "texture": "#0"},
				"up": {"uv": [10.4375, 1.4375, 10.25, 1.25], "texture": "#0"},
				"down": {"uv": [1.6875, 10.25, 1.5, 10.4375], "texture": "#0"}
			}
		},
		{
			"from": [7.676, 6.75206, 15.24146],
			"to": [8.324, 7.27856, 17.71196],
			"rotation": {"angle": 0, "axis": "y", "origin": [8, 10.08088, 8]},
			"faces": {
				"north": {"uv": [10.25, 9.75, 10.4375, 9.875], "texture": "#0"},
				"east": {"uv": [9.5, 8, 10.125, 8.125], "texture": "#0"},
				"south": {"uv": [10, 10.25, 10.1875, 10.375], "texture": "#0"},
				"west": {"uv": [10.125, 8, 9.5, 8.125], "texture": "#0"},
				"up": {"uv": [7.6875, 9.625, 7.5, 9], "texture": "#0"},
				"down": {"uv": [7.9375, 9, 7.75, 9.625], "texture": "#0"}
			}
		},
		{
			"from": [7.676, 7.27856, 16.86146],
			"to": [8.324, 7.52156, 18.52196],
			"rotation": {"angle": 0, "axis": "y", "origin": [8, 10.08088, 8]},
			"faces": {
				"north": {"uv": [3, 10.75, 3.1875, 10.8125], "texture": "#0"},
				"east": {"uv": [10.25, 6.25, 10.6875, 6.3125], "texture": "#0"},
				"south": {"uv": [3.25, 10.75, 3.4375, 10.8125], "texture": "#0"},
				"west": {"uv": [10.6875, 6.25, 10.25, 6.3125], "texture": "#0"},
				"up": {"uv": [6.6875, 9.9375, 6.5, 9.5], "texture": "#0"},
				"down": {"uv": [6.9375, 9.5, 6.75, 9.9375], "texture": "#0"}
			}
		},
		{
			"from": [7.676, 8.97956, 18.40046],
			"to": [8.324, 9.46556, 19.06871],
			"rotation": {"angle": 0, "axis": "y", "origin": [8, 10.08088, 8]},
			"faces": {
				"north": {"uv": [10.25, 10.25, 10.4375, 10.375], "texture": "#0"},
				"east": {"uv": [10.5, 0, 10.6875, 0.125], "texture": "#0"},
				"south": {"uv": [10.5, 0.25, 10.6875, 0.375], "texture": "#0"},
				"west": {"uv": [10.6875, 0, 10.5, 0.125], "texture": "#0"},
				"up": {"uv": [10.4375, 1.6875, 10.25, 1.5], "texture": "#0"},
				"down": {"uv": [10.4375, 1.75, 10.25, 1.9375], "texture": "#0"}
			}
		},
		{
			"from": [7.676, 9.46556, 16.78046],
			"to": [8.324, 9.78956, 18.72446],
			"rotation": {"angle": 0, "axis": "y", "origin": [8, 10.08088, 8]},
			"faces": {
				"north": {"uv": [10.75, 3.25, 10.9375, 3.3125], "texture": "#0"},
				"east": {"uv": [10.25, 3.5, 10.75, 3.5625], "texture": "#0"},
				"south": {"uv": [3.5, 10.75, 3.6875, 10.8125], "texture": "#0"},
				"west": {"uv": [10.75, 3.5, 10.25, 3.5625], "texture": "#0"},
				"up": {"uv": [3.4375, 9.75, 3.25, 9.25], "texture": "#0"},
				"down": {"uv": [5.1875, 9.25, 5, 9.75], "texture": "#0"}
			}
		},
		{
			"from": [7.73297, 7.19756, 14.79677],
			"to": [8.27567, 7.43246, 16.36817],
			"rotation": {"angle": 0, "axis": "y", "origin": [8, 10.08088, 8]},
			"faces": {
				"north": {"uv": [10.75, 5.5, 10.875, 5.5625], "texture": "#0"},
				"east": {"uv": [10.5, 0.5, 10.875, 0.5625], "texture": "#0"},
				"south": {"uv": [5.75, 10.75, 5.875, 10.8125], "texture": "#0"},
				"west": {"uv": [10.875, 0.5, 10.5, 0.5625], "texture": "#0"},
				"up": {"uv": [5.375, 10.375, 5.25, 10], "texture": "#0"},
				"down": {"uv": [5.625, 10, 5.5, 10.375], "texture": "#0"}
			}
		},
		{
			"from": [7.73297, 7.43246, 14.56187],
			"to": [8.27567, 7.66736, 16.16486],
			"rotation": {"angle": 0, "axis": "y", "origin": [8, 10.08088, 8]},
			"faces": {
				"north": {"uv": [10.75, 5.75, 10.875, 5.8125], "texture": "#0"},
				"east": {"uv": [10.5, 1, 10.875, 1.0625], "texture": "#0"},
				"south": {"uv": [6, 10.75, 6.125, 10.8125], "texture": "#0"},
				"west": {"uv": [10.875, 1, 10.5, 1.0625], "texture": "#0"},
				"up": {"uv": [10.125, 5.875, 10, 5.5], "texture": "#0"},
				"down": {"uv": [6.125, 10, 6, 10.375], "texture": "#0"}
			}
		},
		{
			"from": [7.73297, 7.66736, 14.32697],
			"to": [8.27567, 7.90226, 15.96236],
			"rotation": {"angle": 0, "axis": "y", "origin": [8, 10.08088, 8]},
			"faces": {
				"north": {"uv": [10.75, 6, 10.875, 6.0625], "texture": "#0"},
				"east": {"uv": [6.75, 10.25, 7.1875, 10.3125], "texture": "#0"},
				"south": {"uv": [6.25, 10.75, 6.375, 10.8125], "texture": "#0"},
				"west": {"uv": [7.1875, 10.25, 6.75, 10.3125], "texture": "#0"},
				"up": {"uv": [6.375, 10.1875, 6.25, 9.75], "texture": "#0"},
				"down": {"uv": [10.125, 0.5, 10, 0.9375], "texture": "#0"}
			}
		},
		{
			"from": [7.73297, 7.90226, 14.09207],
			"to": [8.27567, 8.13716, 15.75986],
			"rotation": {"angle": 0, "axis": "y", "origin": [8, 10.08088, 8]},
			"faces": {
				"north": {"uv": [10.75, 6.25, 10.875, 6.3125], "texture": "#0"},
				"east": {"uv": [7.25, 10.25, 7.6875, 10.3125], "texture": "#0"},
				"south": {"uv": [6.5, 10.75, 6.625, 10.8125], "texture": "#0"},
				"west": {"uv": [7.6875, 10.25, 7.25, 10.3125], "texture": "#0"},
				"up": {"uv": [1.875, 10.4375, 1.75, 10], "texture": "#0"},
				"down": {"uv": [2.125, 10, 2, 10.4375], "texture": "#0"}
			}
		},
		{
			"from": [7.73297, 8.13716, 13.85717],
			"to": [8.27567, 8.37206, 15.55736],
			"rotation": {"angle": 0, "axis": "y", "origin": [8, 10.08088, 8]},
			"faces": {
				"north": {"uv": [10.75, 6.5, 10.875, 6.5625], "texture": "#0"},
				"east": {"uv": [7.75, 10.25, 8.1875, 10.3125], "texture": "#0"},
				"south": {"uv": [6.75, 10.75, 6.875, 10.8125], "texture": "#0"},
				"west": {"uv": [8.1875, 10.25, 7.75, 10.3125], "texture": "#0"},
				"up": {"uv": [2.375, 10.4375, 2.25, 10], "texture": "#0"},
				"down": {"uv": [10.125, 2.25, 10, 2.6875], "texture": "#0"}
			}
		},
		{
			"from": [7.73297, 8.37206, 13.62227],
			"to": [8.27567, 8.60696, 15.35486],
			"rotation": {"angle": 0, "axis": "y", "origin": [8, 10.08088, 8]},
			"faces": {
				"north": {"uv": [10.75, 6.75, 10.875, 6.8125], "texture": "#0"},
				"east": {"uv": [8.25, 10.25, 8.6875, 10.3125], "texture": "#0"},
				"south": {"uv": [7, 10.75, 7.125, 10.8125], "texture": "#0"},
				"west": {"uv": [8.6875, 10.25, 8.25, 10.3125], "texture": "#0"},
				"up": {"uv": [2.625, 10.4375, 2.5, 10], "texture": "#0"},
				"down": {"uv": [2.875, 10, 2.75, 10.4375], "texture": "#0"}
			}
		},
		{
			"from": [7.73297, 8.60696, 13.38737],
			"to": [8.27567, 8.84186, 15.11996],
			"rotation": {"angle": 0, "axis": "y", "origin": [8, 10.08088, 8]},
			"faces": {
				"north": {"uv": [10.75, 7, 10.875, 7.0625], "texture": "#0"},
				"east": {"uv": [8.75, 10.25, 9.1875, 10.3125], "texture": "#0"},
				"south": {"uv": [7.25, 10.75, 7.375, 10.8125], "texture": "#0"},
				"west": {"uv": [9.1875, 10.25, 8.75, 10.3125], "texture": "#0"},
				"up": {"uv": [10.125, 3.1875, 10, 2.75], "texture": "#0"},
				"down": {"uv": [10.125, 3.25, 10, 3.6875], "texture": "#0"}
			}
		},
		{
			"from": [7.73297, 9.07676, 13.08767],
			"to": [8.27567, 9.31166, 14.60561],
			"rotation": {"angle": 0, "axis": "y", "origin": [8, 10.08088, 8]},
			"faces": {
				"north": {"uv": [10.75, 7.25, 10.875, 7.3125], "texture": "#0"},
				"east": {"uv": [10.5, 1.25, 10.875, 1.3125], "texture": "#0"},
				"south": {"uv": [7.5, 10.75, 7.625, 10.8125], "texture": "#0"},
				"west": {"uv": [10.875, 1.25, 10.5, 1.3125], "texture": "#0"},
				"up": {"uv": [6.625, 10.375, 6.5, 10], "texture": "#0"},
				"down": {"uv": [10.125, 6.5, 10, 6.875], "texture": "#0"}
			}
		},
		{
			"from": [7.73297, 8.84186, 13.15247],
			"to": [8.27567, 9.07676, 14.85266],
			"rotation": {"angle": 0, "axis": "y", "origin": [8, 10.08088, 8]},
			"faces": {
				"north": {"uv": [10.75, 7.5, 10.875, 7.5625], "texture": "#0"},
				"east": {"uv": [10.25, 9, 10.6875, 9.0625], "texture": "#0"},
				"south": {"uv": [7.75, 10.75, 7.875, 10.8125], "texture": "#0"},
				"west": {"uv": [10.6875, 9, 10.25, 9.0625], "texture": "#0"},
				"up": {"uv": [3.875, 10.4375, 3.75, 10], "texture": "#0"},
				"down": {"uv": [4.125, 10, 4, 10.4375], "texture": "#0"}
			}
		},
		{
			"from": [7.73297, 9.31166, 13.08767],
			"to": [8.27567, 9.54656, 14.38286],
			"rotation": {"angle": 0, "axis": "y", "origin": [8, 10.08088, 8]},
			"faces": {
				"north": {"uv": [10.75, 7.75, 10.875, 7.8125], "texture": "#0"},
				"east": {"uv": [6.5, 10.5, 6.8125, 10.5625], "texture": "#0"},
				"south": {"uv": [8, 10.75, 8.125, 10.8125], "texture": "#0"},
				"west": {"uv": [6.8125, 10.5, 6.5, 10.5625], "texture": "#0"},
				"up": {"uv": [0.125, 10.5625, 0, 10.25], "texture": "#0"},
				"down": {"uv": [0.375, 10.25, 0.25, 10.5625], "texture": "#0"}
			}
		},
		{
			"name": "trigger",
			"from": [7.91468, 8.87831, 12.85196],
			"to": [8.07668, 9.54656, 13.21646],
			"rotation": {"angle": 0, "axis": "y", "origin": [8, 10.08088, 8]},
			"faces": {
				"north": {"uv": [10.75, 3.5, 10.8125, 3.6875], "texture": "#0"},
				"east": {"uv": [3.75, 10.75, 3.8125, 10.9375], "texture": "#0"},
				"south": {"uv": [10.75, 3.75, 10.8125, 3.9375], "texture": "#0"},
				"west": {"uv": [3.8125, 10.75, 3.75, 10.9375], "texture": "#0"},
				"up": {"uv": [10.8125, 9.5625, 10.75, 9.5], "texture": "#0"},
				"down": {"uv": [9.8125, 10.75, 9.75, 10.8125], "texture": "#0"}
			}
		},
		{
			"from": [7.83368, 8.87831, 11.92046],
			"to": [8.15768, 9.10106, 12.60896],
			"rotation": {"angle": 0, "axis": "y", "origin": [8, 10.08088, 8]},
			"faces": {
				"north": {"uv": [10.75, 9.75, 10.8125, 9.8125], "texture": "#0"},
				"east": {"uv": [4.25, 10.75, 4.4375, 10.8125], "texture": "#0"},
				"south": {"uv": [10, 10.75, 10.0625, 10.8125], "texture": "#0"},
				"west": {"uv": [10.75, 4.25, 10.9375, 4.3125], "texture": "#0"},
				"up": {"uv": [4.5625, 10.9375, 4.5, 10.75], "texture": "#0"},
				"down": {"uv": [10.8125, 4.5, 10.75, 4.6875], "texture": "#0"}
			}
		},
		{
			"from": [7.83368, 8.65556, 12.40646],
			"to": [8.15768, 8.87831, 13.41896],
			"rotation": {"angle": 0, "axis": "y", "origin": [8, 10.08088, 8]},
			"faces": {
				"north": {"uv": [10.75, 10, 10.8125, 10.0625], "texture": "#0"},
				"east": {"uv": [10.5, 7.75, 10.75, 7.8125], "texture": "#0"},
				"south": {"uv": [10.25, 10.75, 10.3125, 10.8125], "texture": "#0"},
				"west": {"uv": [8, 10.5, 8.25, 10.5625], "texture": "#0"},
				"up": {"uv": [8.3125, 10.75, 8.25, 10.5], "texture": "#0"},
				"down": {"uv": [8.5625, 10.5, 8.5, 10.75], "texture": "#0"}
			}
		},
		{
			"from": [7.83368, 9.10106, 11.92046],
			"to": [8.15768, 9.54656, 12.14321],
			"rotation": {"angle": 0, "axis": "y", "origin": [8, 10.08088, 8]},
			"faces": {
				"north": {"uv": [10.75, 8, 10.8125, 8.125], "texture": "#0"},
				"east": {"uv": [8.25, 10.75, 8.3125, 10.875], "texture": "#0"},
				"south": {"uv": [10.75, 8.25, 10.8125, 8.375], "texture": "#0"},
				"west": {"uv": [8.5, 10.75, 8.5625, 10.875], "texture": "#0"},
				"up": {"uv": [10.8125, 10.3125, 10.75, 10.25], "texture": "#0"},
				"down": {"uv": [10.5625, 10.75, 10.5, 10.8125], "texture": "#0"}
			}
		},
		{
			"from": [7.8, 12.5592, -3.72595],
			"to": [8.2, 13.1342, -0.45095],
			"shade": false,
			"rotation": {"angle": 0, "axis": "y", "origin": [8, 10.08088, 8]},
			"faces": {
				"north": {"uv": [8.75, 10.5, 8.875, 10.625], "texture": "#0"},
				"east": {"uv": [9, 6.75, 9.8125, 6.875], "texture": "#0"},
				"south": {"uv": [9, 10.5, 9.125, 10.625], "texture": "#0"},
				"west": {"uv": [9.8125, 6.75, 9, 6.875], "texture": "#0"},
				"up": {"uv": [9.375, 2.8125, 9.25, 2], "texture": "#0"},
				"down": {"uv": [3.125, 9.25, 3, 10.0625], "texture": "#0"}
			}
		},
		{
			"from": [7.8, 13.1342, -3.72595],
			"to": [8.2, 13.3092, -1.05095],
			"shade": false,
			"rotation": {"angle": 0, "axis": "y", "origin": [8, 10.08088, 8]},
			"faces": {
				"north": {"uv": [10.75, 8.5, 10.875, 8.5625], "texture": "#0"},
				"east": {"uv": [6.75, 10, 7.4375, 10.0625], "texture": "#0"},
				"south": {"uv": [8.75, 10.75, 8.875, 10.8125], "texture": "#0"},
				"west": {"uv": [7.4375, 10, 6.75, 10.0625], "texture": "#0"},
				"up": {"uv": [1.375, 10.1875, 1.25, 9.5], "texture": "#0"},
				"down": {"uv": [1.625, 9.5, 1.5, 10.1875], "texture": "#0"}
			}
		},
		{
			"from": [7.8, 12.5592, -0.45095],
			"to": [8.2, 12.8842, 0.47405],
			"shade": false,
			"rotation": {"angle": 0, "axis": "y", "origin": [8, 10.08088, 8]},
			"faces": {
				"north": {"uv": [10.75, 8.75, 10.875, 8.8125], "texture": "#0"},
				"east": {"uv": [9.25, 10.5, 9.5, 10.5625], "texture": "#0"},
				"south": {"uv": [9, 10.75, 9.125, 10.8125], "texture": "#0"},
				"west": {"uv": [9.25, 10.5, 9.5, 10.5625], "texture": "#0"},
				"up": {"uv": [10.375, 4.25, 10.25, 4], "texture": "#0"},
				"down": {"uv": [4.375, 10.25, 4.25, 10.5], "texture": "#0"}
			}
		},
		{
			"from": [7.8, 13.3092, -3.72595],
			"to": [8.2, 13.4842, -2.05095],
			"shade": false,
			"rotation": {"angle": 0, "axis": "y", "origin": [8, 10.08088, 8]},
			"faces": {
				"north": {"uv": [10.75, 9, 10.875, 9.0625], "texture": "#0"},
				"east": {"uv": [10.25, 9.25, 10.6875, 9.3125], "texture": "#0"},
				"south": {"uv": [9.25, 10.75, 9.375, 10.8125], "texture": "#0"},
				"west": {"uv": [10.6875, 9.25, 10.25, 9.3125], "texture": "#0"},
				"up": {"uv": [10.125, 4.4375, 10, 4], "texture": "#0"},
				"down": {"uv": [10.125, 4.5, 10, 4.9375], "texture": "#0"}
			}
		},
		{
			"from": [7.8, 13.4842, -3.72595],
			"to": [8.2, 13.6592, -3.05095],
			"shade": false,
			"rotation": {"angle": 0, "axis": "y", "origin": [8, 10.08088, 8]},
			"faces": {
				"north": {"uv": [10.75, 9.25, 10.875, 9.3125], "texture": "#0"},
				"east": {"uv": [4.75, 10.75, 4.9375, 10.8125], "texture": "#0"},
				"south": {"uv": [9.5, 10.75, 9.625, 10.8125], "texture": "#0"},
				"west": {"uv": [10.75, 4.75, 10.9375, 4.8125], "texture": "#0"},
				"up": {"uv": [1.875, 10.6875, 1.75, 10.5], "texture": "#0"},
				"down": {"uv": [10.625, 1.75, 10.5, 1.9375], "texture": "#0"}
			}
		}
	],
	"display": {
		"thirdperson_righthand": {
			"translation": [-2, -3, -4.75]
		},
		"thirdperson_lefthand": {
			"translation": [-2, -3, -4.75]
		},
		"firstperson_righthand": {
			"translation": [-1.5, -4.5, -6.5],
			"scale": [2, 2, 2]
		},
		"firstperson_lefthand": {
			"translation": [-1.5, -4.5, -6.5],
			"scale": [2, 2, 2]
		},
		"gui": {
			"rotation": [159.18, -42.16, -176.01],
			"translation": [-0.25, -1.25, 0],
			"scale": [0.8, 0.8, 0.8]
		},
		"fixed": {
			"rotation": [0, 90, 0],
			"translation": [0, -5.75, 0],
			"scale": [2, 2, 2]
		}
	},
	"groups": [
		{
			"name": "laser_rifle",
			"origin": [7.99143, 8, 11.40409],
			"color": 0,
			"children": [
				{
					"name": "coil",
					"origin": [8.48972, 7.17903, 14.01515],
					"color": 0,
					"children": [
						{
							"name": "cylinder",
							"origin": [5.37947, 14.43617, 35.28125],
							"color": 1,
							"children": [0, 1, 2, 3, 4, 5, 6, 7]
						},
						{
							"name": "cover",
							"origin": [5.13065, 15.01674, 38.22254],
							"color": 1,
							"children": [8, 9, 10, 11]
						},
						{
							"name": "barrel",
							"origin": [4.5932, 16.27078, 44.87972],
							"color": 1,
							"children": [12, 13, 14, 15, 16]
						}
					]
				},
				{
					"name": "body",
					"origin": [8.24263, 8.38433, 3.81659],
					"color": 0,
					"children": [17, 18, 19, 20, 21, 22, 23, 24, 25, 26]
				},
				{
					"name": "stock",
					"origin": [7.78754, 6.42295, 11.64597],
					"color": 0,
					"children": [
						{
							"name": "stock_in",
							"origin": [8.30201, 6.76567, 5.01659],
							"color": 0,
							"children": [27, 28, 29, 30, 31]
						},
						{
							"name": "stock_cover",
							"origin": [7.78754, 6.42295, 11.64597],
							"color": 9,
							"children": [32, 33, 34, 35, 36, 37, 38, 39, 40, 41, 42]
						},
						{
							"name": "handle_connector",
							"origin": [8.00201, 8.99058, 10.01659],
							"color": 0,
							"children": [43, 44, 45, 46, 47, 48, 49, 50, 51]
						},
						{
							"name": "group",
							"origin": [7.78754, 6.42295, 11.64597],
							"color": 0,
							"children": []
						}
					]
				},
				{
					"name": "handle",
					"origin": [7.99667, 8, 6.38572],
					"color": 0,
					"children": [
						{
							"name": "grip",
							"origin": [1.2961, 3, 3.40409],
							"color": 0,
							"children": [52, 53, 54, 55, 56, 57, 58, 59, 60, 61]
						},
						{
							"name": "trigger_guard",
							"origin": [7.40725, 7.49375, 3.03572],
							"color": 0,
							"children": [62, 63, 64, 65]
						}
					]
				},
				{
					"name": "iron_sight_front",
					"origin": [7.45851, 6.57192, 6.7625],
					"color": 7,
					"children": [66, 67, 68, 69, 70]
				}
			]
		}
	]
}