{
  "parent": "block/outer_stairs",
  "textures": {
    "bottom": "futurepack:blocks/deko/color_iron_orange",
    "top": "futurepack:blocks/deko/color_iron_orange",
    "side": "futurepack:blocks/deko/color_iron_orange"
  }
}