{
  "parent": "block/slab_top",
  "textures": {
    "bottom": "futurepack:blocks/deko/gitter_green",
    "top": "futurepack:blocks/deko/gitter_green",
    "side": "futurepack:blocks/deko/gitter_green"
  }
}