{
  "parent": "block/slab",
  "textures": {
    "bottom": "futurepack:blocks/deko/luftung_orange",
    "top": "futurepack:blocks/deko/luftung_orange",
    "side": "futurepack:blocks/deko/luftung_orange"
  }
}