{
	"parent": "block/cube",
	"textures": {
	"particle":"futurepack:blocks/inventory/dronenstation_seite",
	"down":"futurepack:blocks/deko/color_iron_light_gray",
	"up":"futurepack:blocks/inventory/dronenstation_oben",
	"north":"futurepack:blocks/inventory/dronenstation_seite",
	"east":"futurepack:blocks/inventory/dronenstation_seite",
	"south":"futurepack:blocks/inventory/dronenstation_seite",
	"west":"futurepack:blocks/inventory/dronenstation_seite"      
	}
}
