{
    "parent": "block/block",
	"textures": {
		"texture0": "futurepack:blocks/misc/extern_cooler0",
		"texture1": "futurepack:blocks/misc/extern_cooler1",
		"texture2": "futurepack:blocks/misc/extern_cooler2",
		"texture3": "futurepack:blocks/misc/extern_cooler3",
		"texture4": "futurepack:blocks/misc/extern_cooler4",
		"texture5": "futurepack:blocks/misc/extern_cooler4",
		"particle": "futurepack:blocks/misc/extern_cooler0",
		"frontpanel": "futurepack:blocks/misc/extern_cooler_cool"
	},
	"elements": [
		{
			"__coment": "the bottom plate",
			"from": [ 0.0, 0.0, 0.0 ],
			"to": [ 16.0, 4.0, 16.0 ],
			"faces": {
				"down":	{ "uv": [ 0, 0, 16, 16  ], "texture": "#texture2", "cullface":"down"},
				"up":	{ "uv": [ 0, 0, 16, 16  ], "texture": "#texture1"},
				"north":{ "uv": [ 0, 0, 16, 4  ], "texture": "#texture0", "cullface": "north"},
				"south":{ "uv": [ 0, 0, 16, 4  ], "texture": "#frontpanel", "cullface": "south"},
				"west":	{ "uv": [ 0, 12, 16, 16  ], "texture": "#texture0", "cullface": "west"},
				"east":	{ "uv": [ 0, 8, 16, 12  ], "texture": "#texture0", "cullface": "east"}
			}
		},
		{
			"from": [ 2.0, 4.0, 12.0 ],
			"to": [ 4.0, 16.0, 14.0 ],
			"faces": {
				"down":	{ "uv": [ 0, 14, 2, 16  ], "texture": "#texture3"},
				"up":	{ "uv": [ 0, 12, 2, 14  ], "texture": "#texture3", "cullface": "up"},
				"north":{ "uv": [ 0, 0, 2, 12  ], "texture": "#texture3"},
				"south":{ "uv": [ 2, 0, 4, 12  ], "texture": "#texture3"},
				"west":	{ "uv": [ 6, 0, 8, 12  ], "texture": "#texture3"},
				"east":	{ "uv": [ 4, 0, 6, 12  ], "texture": "#texture3"}
			}
		},
		{
			"from": [ 12.0, 4.0, 12.0 ],
			"to": [ 14.0, 16.0, 14.0 ],
			"faces": {
				"down":	{ "uv": [ 0, 14, 2, 16  ], "texture": "#texture3"},
				"up":	{ "uv": [ 0, 12, 2, 14  ], "texture": "#texture3", "cullface": "up"},
				"north":{ "uv": [ 0, 0, 2, 12  ], "texture": "#texture3"},
				"south":{ "uv": [ 2, 0, 4, 12  ], "texture": "#texture3"},
				"west":	{ "uv": [ 6, 0, 8, 12  ], "texture": "#texture3"},
				"east":	{ "uv": [ 4, 0, 6, 12  ], "texture": "#texture3"}
			}
		},
		{
			"from": [ 2.0, 4.0, 2.0 ],
			"to": [ 4.0, 16.0, 4.0 ],
			"faces": {
				"down":	{ "uv": [ 0, 14, 2, 16  ], "texture": "#texture3"},
				"up":	{ "uv": [ 0, 12, 2, 14  ], "texture": "#texture3", "cullface": "up"},
				"north":{ "uv": [ 0, 0, 2, 12  ], "texture": "#texture3"},
				"south":{ "uv": [ 2, 0, 4, 12  ], "texture": "#texture3"},
				"west":	{ "uv": [ 6, 0, 8, 12  ], "texture": "#texture3"},
				"east":	{ "uv": [ 4, 0, 6, 12  ], "texture": "#texture3"}
			}
		},
		{
			"from": [ 12.0, 4.0, 2.0 ],
			"to": [ 14.0, 16.0, 4.0 ],
			"faces": {
				"down":	{ "uv": [ 0, 14, 2, 16  ], "texture": "#texture3"},
				"up":	{ "uv": [ 0, 12, 2, 14  ], "texture": "#texture3", "cullface": "up"},
				"north":{ "uv": [ 0, 0, 2, 12  ], "texture": "#texture3"},
				"south":{ "uv": [ 2, 0, 4, 12  ], "texture": "#texture3"},
				"west":	{ "uv": [ 6, 0, 8, 12  ], "texture": "#texture3"},
				"east":	{ "uv": [ 4, 0, 6, 12  ], "texture": "#texture3"}
			}
		},
		{
			"from": [ 1.0, 4.0, 1.0 ],
			"to": [ 15.0, 5.0, 15.0 ],
			"faces": {
				"down":	{ "uv": [ 0, 0, 14, 14  ], "texture": "#texture5"},
				"up":	{ "uv": [ 0, 0, 14, 14  ], "texture": "#texture4"},
				"north":{ "uv": [ 2, 12, 16, 13  ], "texture": "#texture3"},
				"south":{ "uv": [ 2, 13, 16, 14  ], "texture": "#texture3"},
				"west":	{ "uv": [ 2, 15, 16, 16  ], "texture": "#texture3"},
				"east":	{ "uv": [ 2, 14, 16, 15  ], "texture": "#texture3"}
			}
		},
		{
			"from": [ 1.0, 14.0, 1.0 ],
			"to": [ 15.0, 15.0, 15.0 ],
			"faces": {
				"down":	{ "uv": [ 0, 0, 14, 14  ], "texture": "#texture5"},
				"up":	{ "uv": [ 0, 0, 14, 14  ], "texture": "#texture4"},
				"north":{ "uv": [ 2, 12, 16, 13  ], "texture": "#texture3"},
				"south":{ "uv": [ 2, 13, 16, 14  ], "texture": "#texture3"},
				"west":	{ "uv": [ 2, 15, 16, 16  ], "texture": "#texture3"},
				"east":	{ "uv": [ 2, 14, 16, 15  ], "texture": "#texture3"}
			}
		},
		{
			"from": [ 1.0, 6.0, 1.0 ],
			"to": [ 15.0, 7.0, 15.0 ],
			"faces": {
				"down":	{ "uv": [ 0, 0, 14, 14  ], "texture": "#texture5"},
				"up":	{ "uv": [ 0, 0, 14, 14  ], "texture": "#texture4"},
				"north":{ "uv": [ 2, 12, 16, 13  ], "texture": "#texture3"},
				"south":{ "uv": [ 2, 13, 16, 14  ], "texture": "#texture3"},
				"west":	{ "uv": [ 2, 15, 16, 16  ], "texture": "#texture3"},
				"east":	{ "uv": [ 2, 14, 16, 15  ], "texture": "#texture3"}
			}
		},
		{
			"from": [ 1.0, 8.0, 1.0 ],
			"to": [ 15.0, 9.0, 15.0 ],
			"faces": {
				"down":	{ "uv": [ 0, 0, 14, 14  ], "texture": "#texture5"},
				"up":	{ "uv": [ 0, 0, 14, 14  ], "texture": "#texture4"},
				"north":{ "uv": [ 2, 12, 16, 13  ], "texture": "#texture3"},
				"south":{ "uv": [ 2, 13, 16, 14  ], "texture": "#texture3"},
				"west":	{ "uv": [ 2, 15, 16, 16  ], "texture": "#texture3"},
				"east":	{ "uv": [ 2, 14, 16, 15  ], "texture": "#texture3"}
			}
		},
		{
			"from": [ 1.0, 10.0, 1.0 ],
			"to": [ 15.0, 11.0, 15.0 ],
			"faces": {
				"down":	{ "uv": [ 0, 0, 14, 14  ], "texture": "#texture5"},
				"up":	{ "uv": [ 0, 0, 14, 14  ], "texture": "#texture4"},
				"north":{ "uv": [ 2, 12, 16, 13  ], "texture": "#texture3"},
				"south":{ "uv": [ 2, 13, 16, 14  ], "texture": "#texture3"},
				"west":	{ "uv": [ 2, 15, 16, 16  ], "texture": "#texture3"},
				"east":	{ "uv": [ 2, 14, 16, 15  ], "texture": "#texture3"}
			}
		},
		{
			"from": [ 1.0, 12.0, 1.0 ],
			"to": [ 15.0, 13.0, 15.0 ],
			"faces": {
				"down":	{ "uv": [ 0, 0, 14, 14  ], "texture": "#texture5"},
				"up":	{ "uv": [ 0, 0, 14, 14  ], "texture": "#texture4"},
				"north":{ "uv": [ 2, 12, 16, 13  ], "texture": "#texture3"},
				"south":{ "uv": [ 2, 13, 16, 14  ], "texture": "#texture3"},
				"west":	{ "uv": [ 2, 15, 16, 16  ], "texture": "#texture3"},
				"east":	{ "uv": [ 2, 14, 16, 15  ], "texture": "#texture3"}
			}
		}
	]
}