{
	"parent": "block/cube",
	"textures": {
	"particle":"futurepack:blocks/multiblocks/ftl_drive_base",
	"down":"futurepack:blocks/multiblocks/ftl_drive_base",
	"up":"futurepack:blocks/multiblocks/ftl_drive_base",
	"north":"futurepack:blocks/multiblocks/ftl_drive_base",
	"east":"futurepack:blocks/multiblocks/ftl_drive_base",
	"south":"futurepack:blocks/multiblocks/ftl_drive_base",
	"west":"futurepack:blocks/multiblocks/ftl_drive_base"
	}
}
