{
	"parent": "block/cube",
	"textures": {
	"particle":"futurepack:blocks/machines/industrieofen_vorne_an",
	"down":"futurepack:blocks/machines/industrieofen",
	"up":"futurepack:blocks/machines/industrieofen",
	"north":"futurepack:blocks/machines/industrieofen_vorne_an",
	"east":"futurepack:blocks/machines/industrieofen_links",
	"south":"futurepack:blocks/machines/industrieofen",
	"west":"futurepack:blocks/machines/industrieofen_rechts"
	}
}
