{
  "parent": "block/orientable",
  "textures": {
    "top": "futurepack:blocks/pilzflechte_root",
    "front": "futurepack:blocks/pilzflechte_root",
    "side": "futurepack:blocks/pilzflechte_root"
  }
}