{
	"parent": "block/cube",
	"textures": {
	"particle":"futurepack:blocks/machines/opti_bench_front_2",
	"down":"futurepack:blocks/deko/color_iron_black",
	"up":"futurepack:blocks/machines/opti_bench_top_2",
	"north":"futurepack:blocks/machines/opti_bench_front_2",
	"east":"futurepack:blocks/machines/opti_bench_side_2",
	"south":"futurepack:blocks/machines/opti_bench_side_2",
	"west":"futurepack:blocks/machines/opti_bench_side_2"
	}
}
