{
    "parent": "futurepack:block/cube",
    "textures": {
        "particle": "#top",
        "up": "#top",
		"down": "#top",
		"north": "#side",
		"south": "#side",
		"east": "#side",
		"west": "#side"
		
    }
}
