{
	"parent": "block/cube",
	"textures": {
	"particle":"futurepack:blocks/machines/super_crusher_front_0",
	"down":"futurepack:blocks/deko/color_iron_white",
	"up":"futurepack:blocks/machines/super_crusher_top_0",
	"north":"futurepack:blocks/machines/super_crusher_front_0",
	"east":"futurepack:blocks/deko/color_iron_white",
	"south":"futurepack:blocks/machines/super_crusher_hinten_0",
	"west":"futurepack:blocks/deko/color_iron_white"
	}
}
