{
  "data": {
    "0-1-1": "0",
    "0-1-2": "0",
    "0-1-3": "1",
    "0-1-4": "2",
    "0-1-5": "1",
    "0-1-6": "0",
    "0-1-7": "0",
    "0-2-1": "0",
    "0-2-2": "0",
    "0-2-3": "10",
    "0-2-4": "10",
    "0-2-5": "10",
    "0-2-6": "0",
    "0-2-7": "0",
    "0-3-1": "4",
    "0-3-2": "4",
    "0-3-3": "10",
    "0-3-4": "10",
    "0-3-5": "10",
    "0-3-6": "4",
    "0-3-7": "4",
    "0-4-1": "0",
    "0-4-2": "0",
    "0-4-3": "10",
    "0-4-4": "10",
    "0-4-5": "10",
    "0-4-6": "0",
    "0-4-7": "0",
    "0-5-1": "0",
    "0-5-2": "0",
    "0-5-3": "5",
    "0-5-4": "2",
    "0-5-5": "5",
    "0-5-6": "0",
    "0-5-7": "0",
    "0-6-1": "0",
    "0-6-2": "0",
    "0-6-3": "6",
    "0-6-4": "2",
    "0-6-5": "6",
    "0-6-6": "0",
    "0-6-7": "0",
    "0-7-1": "0",
    "0-7-2": "0",
    "0-7-3": "6",
    "0-7-4": "2",
    "0-7-5": "6",
    "0-7-6": "0",
    "0-7-7": "0",
    "0-8-1": "0",
    "0-8-2": "0",
    "0-8-3": "6",
    "0-8-4": "2",
    "0-8-5": "6",
    "0-8-6": "0",
    "0-8-7": "0",
    "0-9-1": "0",
    "0-9-2": "0",
    "0-9-3": "6",
    "0-9-4": "2",
    "0-9-5": "6",
    "0-9-6": "0",
    "0-9-7": "0",
    "0-10-1": "0",
    "0-10-2": "0",
    "0-10-3": "6",
    "0-10-4": "2",
    "0-10-5": "6",
    "0-10-6": "0",
    "0-10-7": "0",
    "0-11-1": "0",
    "0-11-2": "0",
    "0-11-3": "7",
    "0-11-4": "2",
    "0-11-5": "8",
    "0-11-6": "0",
    "0-11-7": "0",
    "0-12-1": "0",
    "0-12-2": "0",
    "0-12-3": "3",
    "0-12-4": "3",
    "0-12-5": "3",
    "0-12-6": "0",
    "0-12-7": "0",
    "0-13-1": "4",
    "0-13-2": "4",
    "0-13-3": "3",
    "0-13-4": "3",
    "0-13-5": "3",
    "0-13-6": "4",
    "0-13-7": "4",
    "0-14-1": "0",
    "0-14-2": "0",
    "0-14-3": "3",
    "0-14-4": "3",
    "0-14-5": "3",
    "0-14-6": "0",
    "0-14-7": "0",
    "0-15-1": "0",
    "0-15-2": "0",
    "0-15-3": "1",
    "0-15-4": "2",
    "0-15-5": "1",
    "0-15-6": "0",
    "0-15-7": "0",
    "1-1-1": "0",
    "1-1-2": "9",
    "1-1-3": "a",
    "1-1-4": "2",
    "1-1-5": "b",
    "1-1-6": "c",
    "1-1-7": "0",
    "1-2-1": "0",
    "1-2-2": "d",
    "1-2-3": "e",
    "1-2-4": "f",
    "1-2-5": "10",
    "1-2-6": "11",
    "1-2-7": "0",
    "1-3-1": "4",
    "1-3-2": "d",
    "1-3-3": "10",
    "1-3-4": "2",
    "1-3-5": "10",
    "1-3-6": "d",
    "1-3-7": "4",
    "1-4-1": "0",
    "1-4-2": "d",
    "1-4-3": "10",
    "1-4-4": "10",
    "1-4-5": "10",
    "1-4-6": "d",
    "1-4-7": "0",
    "1-5-1": "0",
    "1-5-2": "d",
    "1-5-3": "12",
    "1-5-4": "12",
    "1-5-5": "12",
    "1-5-6": "d",
    "1-5-7": "0",
    "1-6-1": "0",
    "1-6-2": "d",
    "1-6-3": "12",
    "1-6-4": "12",
    "1-6-5": "12",
    "1-6-6": "d",
    "1-6-7": "0",
    "1-7-1": "0",
    "1-7-2": "d",
    "1-7-3": "12",
    "1-7-4": "12",
    "1-7-5": "12",
    "1-7-6": "d",
    "1-7-7": "0",
    "1-8-1": "0",
    "1-8-2": "d",
    "1-8-3": "10",
    "1-8-4": "10",
    "1-8-5": "10",
    "1-8-6": "d",
    "1-8-7": "0",
    "1-9-1": "0",
    "1-9-2": "11",
    "1-9-3": "3",
    "1-9-4": "3",
    "1-9-5": "3",
    "1-9-6": "11",
    "1-9-7": "0",
    "1-10-1": "0",
    "1-10-2": "11",
    "1-10-3": "3",
    "1-10-4": "3",
    "1-10-5": "3",
    "1-10-6": "11",
    "1-10-7": "0",
    "1-11-1": "0",
    "1-11-2": "11",
    "1-11-3": "3",
    "1-11-4": "2",
    "1-11-5": "13",
    "1-11-6": "11",
    "1-11-7": "0",
    "1-12-1": "0",
    "1-12-2": "11",
    "1-12-3": "3",
    "1-12-4": "3",
    "1-12-5": "3",
    "1-12-6": "11",
    "1-12-7": "0",
    "1-13-1": "4",
    "1-13-2": "3",
    "1-13-3": "3",
    "1-13-4": "3",
    "1-13-5": "3",
    "1-13-6": "3",
    "1-13-7": "4",
    "1-14-1": "0",
    "1-14-2": "3",
    "1-14-3": "3",
    "1-14-4": "3",
    "1-14-5": "3",
    "1-14-6": "3",
    "1-14-7": "0",
    "1-15-1": "0",
    "1-15-2": "9",
    "1-15-3": "14",
    "1-15-4": "2",
    "1-15-5": "b",
    "1-15-6": "c",
    "1-15-7": "0",
    "1-16-2": "10",
    "1-16-3": "10",
    "1-16-4": "10",
    "1-16-5": "10",
    "1-16-6": "10",
    "2-0-1": "15",
    "2-0-7": "15",
    "2-1-0": "15",
    "2-1-1": "16",
    "2-1-2": "13",
    "2-1-3": "2",
    "2-1-4": "2",
    "2-1-5": "2",
    "2-1-6": "13",
    "2-1-7": "16",
    "2-1-8": "15",
    "2-2-0": "15",
    "2-2-1": "17",
    "2-2-2": "2",
    "2-2-3": "2",
    "2-2-4": "12",
    "2-2-5": "12",
    "2-2-6": "2",
    "2-2-7": "17",
    "2-2-8": "15",
    "2-3-0": "15",
    "2-3-1": "17",
    "2-3-2": "2",
    "2-3-3": "12",
    "2-3-4": "12",
    "2-3-5": "12",
    "2-3-6": "2",
    "2-3-7": "18",
    "2-3-8": "15",
    "2-4-0": "15",
    "2-4-1": "19",
    "2-4-2": "10",
    "2-4-3": "12",
    "2-4-4": "12",
    "2-4-5": "12",
    "2-4-6": "10",
    "2-4-7": "1a",
    "2-4-8": "15",
    "2-5-0": "15",
    "2-5-1": "19",
    "2-5-2": "10",
    "2-5-3": "12",
    "2-5-4": "12",
    "2-5-5": "12",
    "2-5-6": "10",
    "2-5-7": "1a",
    "2-5-8": "15",
    "2-6-0": "15",
    "2-6-1": "19",
    "2-6-2": "10",
    "2-6-3": "12",
    "2-6-4": "12",
    "2-6-5": "12",
    "2-6-6": "10",
    "2-6-7": "1a",
    "2-6-8": "15",
    "2-7-0": "15",
    "2-7-1": "19",
    "2-7-2": "10",
    "2-7-3": "12",
    "2-7-4": "12",
    "2-7-5": "12",
    "2-7-6": "10",
    "2-7-7": "1a",
    "2-7-8": "15",
    "2-8-0": "15",
    "2-8-1": "19",
    "2-8-2": "10",
    "2-8-3": "1b",
    "2-8-4": "12",
    "2-8-5": "12",
    "2-8-6": "10",
    "2-8-7": "1a",
    "2-8-8": "15",
    "2-9-0": "15",
    "2-9-1": "1c",
    "2-9-2": "3",
    "2-9-3": "3",
    "2-9-4": "12",
    "2-9-5": "12",
    "2-9-6": "10",
    "2-9-7": "1d",
    "2-9-8": "15",
    "2-10-0": "15",
    "2-10-1": "1c",
    "2-10-2": "3",
    "2-10-3": "3",
    "2-10-4": "12",
    "2-10-5": "1b",
    "2-10-6": "10",
    "2-10-7": "1d",
    "2-10-8": "15",
    "2-11-0": "15",
    "2-11-1": "16",
    "2-11-2": "3",
    "2-11-3": "3",
    "2-11-4": "12",
    "2-11-5": "1e",
    "2-11-6": "10",
    "2-11-7": "16",
    "2-11-8": "15",
    "2-12-0": "15",
    "2-12-1": "1c",
    "2-12-2": "3",
    "2-12-3": "3",
    "2-12-4": "1b",
    "2-12-5": "12",
    "2-12-6": "1b",
    "2-12-7": "1d",
    "2-12-8": "15",
    "2-13-0": "15",
    "2-13-1": "1c",
    "2-13-2": "3",
    "2-13-3": "3",
    "2-13-4": "3",
    "2-13-5": "12",
    "2-13-6": "3",
    "2-13-7": "1d",
    "2-13-8": "15",
    "2-14-0": "15",
    "2-14-1": "1c",
    "2-14-2": "3",
    "2-14-3": "3",
    "2-14-4": "3",
    "2-14-5": "12",
    "2-14-6": "3",
    "2-14-7": "1d",
    "2-14-8": "15",
    "2-15-0": "15",
    "2-15-1": "16",
    "2-15-2": "13",
    "2-15-3": "2",
    "2-15-4": "2",
    "2-15-5": "12",
    "2-15-6": "13",
    "2-15-7": "16",
    "2-15-8": "15",
    "2-16-1": "15",
    "2-16-2": "10",
    "2-16-3": "10",
    "2-16-4": "10",
    "2-16-5": "10",
    "2-16-6": "10",
    "2-16-7": "15",
    "3-1-1": "0",
    "3-1-2": "b",
    "3-1-3": "c",
    "3-1-4": "2",
    "3-1-5": "1f",
    "3-1-6": "14",
    "3-1-7": "0",
    "3-2-1": "0",
    "3-2-2": "20",
    "3-2-3": "12",
    "3-2-4": "21",
    "3-2-5": "22",
    "3-2-6": "20",
    "3-2-7": "0",
    "3-3-1": "4",
    "3-3-2": "20",
    "3-3-3": "12",
    "3-3-4": "12",
    "3-3-5": "12",
    "3-3-6": "20",
    "3-3-7": "4",
    "3-4-1": "0",
    "3-4-2": "20",
    "3-4-3": "12",
    "3-4-4": "12",
    "3-4-5": "12",
    "3-4-6": "20",
    "3-4-7": "0",
    "3-5-1": "0",
    "3-5-2": "20",
    "3-5-3": "12",
    "3-5-4": "12",
    "3-5-5": "12",
    "3-5-6": "20",
    "3-5-7": "0",
    "3-6-1": "0",
    "3-6-2": "20",
    "3-6-3": "12",
    "3-6-4": "12",
    "3-6-5": "12",
    "3-6-6": "20",
    "3-6-7": "0",
    "3-7-1": "0",
    "3-7-2": "20",
    "3-7-3": "12",
    "3-7-4": "12",
    "3-7-5": "12",
    "3-7-6": "20",
    "3-7-7": "0",
    "3-8-1": "0",
    "3-8-2": "20",
    "3-8-3": "10",
    "3-8-4": "10",
    "3-8-5": "10",
    "3-8-6": "20",
    "3-8-7": "0",
    "3-9-1": "0",
    "3-9-2": "23",
    "3-9-3": "12",
    "3-9-4": "12",
    "3-9-5": "12",
    "3-9-6": "20",
    "3-9-7": "0",
    "3-10-1": "0",
    "3-10-2": "23",
    "3-10-3": "12",
    "3-10-4": "12",
    "3-10-5": "12",
    "3-10-6": "20",
    "3-10-7": "0",
    "3-11-1": "0",
    "3-11-2": "23",
    "3-11-3": "12",
    "3-11-4": "12",
    "3-11-5": "12",
    "3-11-6": "20",
    "3-11-7": "0",
    "3-12-1": "0",
    "3-12-2": "23",
    "3-12-3": "12",
    "3-12-4": "12",
    "3-12-5": "1b",
    "3-12-6": "23",
    "3-12-7": "0",
    "3-13-1": "4",
    "3-13-2": "3",
    "3-13-3": "12",
    "3-13-4": "12",
    "3-13-5": "3",
    "3-13-6": "3",
    "3-13-7": "4",
    "3-14-1": "0",
    "3-14-2": "3",
    "3-14-3": "12",
    "3-14-4": "12",
    "3-14-5": "3",
    "3-14-6": "3",
    "3-14-7": "0",
    "3-15-1": "0",
    "3-15-2": "1e",
    "3-15-3": "12",
    "3-15-4": "12",
    "3-15-5": "9",
    "3-15-6": "14",
    "3-15-7": "0",
    "3-16-2": "10",
    "3-16-3": "10",
    "3-16-4": "10",
    "3-16-5": "10",
    "3-16-6": "10",
    "4-1-1": "0",
    "4-1-2": "0",
    "4-1-3": "1e",
    "4-1-4": "2",
    "4-1-5": "1e",
    "4-1-6": "0",
    "4-1-7": "0",
    "4-2-1": "0",
    "4-2-2": "0",
    "4-2-3": "24",
    "4-2-4": "24",
    "4-2-5": "24",
    "4-2-6": "0",
    "4-2-7": "0",
    "4-3-1": "4",
    "4-3-2": "4",
    "4-3-3": "24",
    "4-3-4": "24",
    "4-3-5": "24",
    "4-3-6": "4",
    "4-3-7": "4",
    "4-4-1": "0",
    "4-4-2": "0",
    "4-4-3": "24",
    "4-4-4": "24",
    "4-4-5": "24",
    "4-4-6": "0",
    "4-4-7": "0",
    "4-5-1": "0",
    "4-5-2": "0",
    "4-5-3": "5",
    "4-5-4": "2",
    "4-5-5": "5",
    "4-5-6": "0",
    "4-5-7": "0",
    "4-6-1": "0",
    "4-6-2": "0",
    "4-6-3": "6",
    "4-6-4": "2",
    "4-6-5": "6",
    "4-6-6": "0",
    "4-6-7": "0",
    "4-7-1": "0",
    "4-7-2": "0",
    "4-7-3": "6",
    "4-7-4": "2",
    "4-7-5": "6",
    "4-7-6": "0",
    "4-7-7": "0",
    "4-8-1": "0",
    "4-8-2": "0",
    "4-8-3": "6",
    "4-8-4": "2",
    "4-8-5": "6",
    "4-8-6": "0",
    "4-8-7": "0",
    "4-9-1": "0",
    "4-9-2": "0",
    "4-9-3": "6",
    "4-9-4": "2",
    "4-9-5": "6",
    "4-9-6": "0",
    "4-9-7": "0",
    "4-10-1": "0",
    "4-10-2": "0",
    "4-10-3": "6",
    "4-10-4": "2",
    "4-10-5": "6",
    "4-10-6": "0",
    "4-10-7": "0",
    "4-11-1": "0",
    "4-11-2": "0",
    "4-11-3": "7",
    "4-11-4": "2",
    "4-11-5": "7",
    "4-11-6": "0",
    "4-11-7": "0",
    "4-12-1": "0",
    "4-12-2": "0",
    "4-12-3": "3",
    "4-12-4": "3",
    "4-12-5": "3",
    "4-12-6": "0",
    "4-12-7": "0",
    "4-13-1": "4",
    "4-13-2": "4",
    "4-13-3": "3",
    "4-13-4": "3",
    "4-13-5": "3",
    "4-13-6": "4",
    "4-13-7": "4",
    "4-14-1": "0",
    "4-14-2": "0",
    "4-14-3": "3",
    "4-14-4": "3",
    "4-14-5": "3",
    "4-14-6": "0",
    "4-14-7": "0",
    "4-15-1": "0",
    "4-15-2": "0",
    "4-15-3": "25",
    "4-15-4": "2",
    "4-15-5": "1e",
    "4-15-6": "0",
    "4-15-7": "0"
  },
  "inventorys": [],
  "doors": [
    {
      "facing": 4,
      "w": 1,
      "h": 3,
      "d": 3,
      "start": "0,2,3",
      "type": "water"
    },
    {
      "facing": 4,
      "w": 1,
      "h": 3,
      "d": 3,
      "start": "0,12,3"
    },
    {
      "facing": 5,
      "w": 1,
      "h": 3,
      "d": 3,
      "start": "4,12,3"
    }
  ],
  "stateMap": {
    "0": "futurepack:color_iron_gray:",
    "1": "futurepack:quantanium:down\u003dfalse;east\u003dtrue;glowing\u003dfalse;north\u003dfalse;south\u003dfalse;up\u003dfalse;west\u003dfalse",
    "10": "minecraft:water:level\u003d0",
    "11": "futurepack:ironladder:facing\u003deast;waterlogged\u003dfalse",
    "12": "minecraft:water:level\u003d8",
    "13": "futurepack:quantanium:down\u003dfalse;east\u003dtrue;glowing\u003dfalse;north\u003dfalse;south\u003dfalse;up\u003dfalse;west\u003dtrue",
    "14": "futurepack:quantanium:down\u003dfalse;east\u003dfalse;glowing\u003dfalse;north\u003dtrue;south\u003dfalse;up\u003dfalse;west\u003dtrue",
    "15": "futurepack:retium_brick:",
    "16": "futurepack:color_gitter_black:",
    "17": "futurepack:color_gitter_pane_black:east\u003dtrue;north\u003dtrue;south\u003dtrue;waterlogged\u003dfalse;west\u003dtrue",
    "18": "futurepack:color_gitter_pane_black:east\u003dtrue;north\u003dtrue;south\u003dtrue;waterlogged\u003dtrue;west\u003dtrue",
    "19": "futurepack:color_gitter_pane_black:east\u003dtrue;north\u003dtrue;south\u003dfalse;waterlogged\u003dtrue;west\u003dtrue",
    "1a": "futurepack:color_gitter_pane_black:east\u003dtrue;north\u003dfalse;south\u003dtrue;waterlogged\u003dtrue;west\u003dtrue",
    "1b": "minecraft:water:level\u003d1",
    "1c": "futurepack:color_gitter_pane_black:east\u003dtrue;north\u003dtrue;south\u003dfalse;waterlogged\u003dfalse;west\u003dtrue",
    "1d": "futurepack:color_gitter_pane_black:east\u003dtrue;north\u003dfalse;south\u003dtrue;waterlogged\u003dfalse;west\u003dtrue",
    "1e": "futurepack:quantanium:down\u003dfalse;east\u003dfalse;glowing\u003dfalse;north\u003dfalse;south\u003dfalse;up\u003dfalse;west\u003dtrue",
    "1f": "futurepack:quantanium:down\u003dfalse;east\u003dtrue;glowing\u003dfalse;north\u003dfalse;south\u003dtrue;up\u003dtrue;west\u003dfalse",
    "2": "futurepack:color_iron_black:",
    "20": "futurepack:ironladder:facing\u003dwest;waterlogged\u003dtrue",
    "21": "futurepack:quantanium:down\u003dfalse;east\u003dfalse;glowing\u003dfalse;north\u003dfalse;south\u003dtrue;up\u003dfalse;west\u003dfalse",
    "22": "futurepack:quantanium:down\u003dtrue;east\u003dfalse;glowing\u003dfalse;north\u003dtrue;south\u003dfalse;up\u003dfalse;west\u003dfalse",
    "23": "futurepack:ironladder:facing\u003dwest;waterlogged\u003dfalse",
    "24": "minecraft:light_blue_stained_glass:",
    "25": "futurepack:quantanium:down\u003dfalse;east\u003dfalse;glowing\u003dfalse;north\u003dfalse;south\u003dfalse;up\u003dfalse;west\u003dfalse",
    "3": "minecraft:air:",
    "4": "futurepack:color_iron_purple:",
    "5": "futurepack:quantanium:down\u003dfalse;east\u003dfalse;glowing\u003dfalse;north\u003dfalse;south\u003dfalse;up\u003dtrue;west\u003dfalse",
    "6": "futurepack:quantanium:down\u003dtrue;east\u003dfalse;glowing\u003dfalse;north\u003dfalse;south\u003dfalse;up\u003dtrue;west\u003dfalse",
    "7": "futurepack:quantanium:down\u003dtrue;east\u003dfalse;glowing\u003dfalse;north\u003dfalse;south\u003dfalse;up\u003dfalse;west\u003dfalse",
    "8": "futurepack:quantanium:down\u003dtrue;east\u003dtrue;glowing\u003dfalse;north\u003dfalse;south\u003dfalse;up\u003dfalse;west\u003dfalse",
    "9": "futurepack:quantanium:down\u003dfalse;east\u003dtrue;glowing\u003dfalse;north\u003dfalse;south\u003dtrue;up\u003dfalse;west\u003dfalse",
    "a": "futurepack:quantanium:down\u003dfalse;east\u003dfalse;glowing\u003dfalse;north\u003dtrue;south\u003dfalse;up\u003dtrue;west\u003dtrue",
    "b": "futurepack:quantanium:down\u003dfalse;east\u003dfalse;glowing\u003dfalse;north\u003dfalse;south\u003dtrue;up\u003dfalse;west\u003dtrue",
    "c": "futurepack:quantanium:down\u003dfalse;east\u003dtrue;glowing\u003dfalse;north\u003dtrue;south\u003dfalse;up\u003dfalse;west\u003dfalse",
    "d": "futurepack:ironladder:facing\u003deast;waterlogged\u003dtrue",
    "e": "futurepack:quantanium:down\u003dtrue;east\u003dfalse;glowing\u003dfalse;north\u003dfalse;south\u003dtrue;up\u003dfalse;west\u003dfalse",
    "f": "futurepack:quantanium:down\u003dfalse;east\u003dfalse;glowing\u003dfalse;north\u003dtrue;south\u003dfalse;up\u003dfalse;west\u003dfalse"
  }
}