{
	"type": "futurepack:asteroid_belt",
	"generator": {
		"type": "futurepack:asteroids",
		"settings": {
			"asteroids": [
				{
					"shape_noise" : [1,2,3,4,5],
					"roundness_noise": [1,2,4],
					"scale": 1.0,
					"base_height" : 128,
					"height_variation": 64,
					"seed": 456
				},
				{
					"shape_noise" : [1,2,3,4,5],
					"roundness_noise": [1,2,4],
					"scale": 3.0,
					"base_height" : 64,
					"height_variation": 128,
					"seed": 2000
				},
				{
					"shape_noise" : [1,2,3,4,5],
					"roundness_noise": [1,3,4],
					"scale": 3.0,
					"base_height" : 192,
					"height_variation": 64,
					"seed": 3000
				},


				{
					"shape_noise" : [5,2,5,7],
					"roundness_noise": [1, 4,9],
					"scale": 0.5,
					"base_height" : 0,
					"height_variation": 64,
					"seed": 1456
				},
				{
					"shape_noise" : [3,3,3],
					"roundness_noise": [3,2,1],
					"scale": 4.0,
					"base_height" : -64,
					"height_variation": 128,
					"seed": 666
				}
			],
			"biome": "futurepack:asteroid_belt",
			"structures": {
				"structures": {
					"mineshaft": {
						"spacing": 1,
						"separation": 0,
						"salt": 0
					}
				}
			}
		}
	}
}
