{
  "config" : {
    "targets" : [ {
      "target" : {
        "predicate_type" : "minecraft:always_true"
      },
      "state" : {
        "Name" : "futurepack:meteor_rock"
      }
    } ],
    "size" : 4,
    "discard_chance_on_air_exposure" : 0.0
  },
  "type" : "minecraft:ore"
}