{
	"feature": "futurepack:ore_prismide_stone",
	"placement": [ 
		{
			"type": "minecraft:biome" 
		},
		{
	      "chance": 5,
	      "type": "minecraft:rarity_filter"
	    },
	    {
          "type" : "minecraft:in_square"
        },
  	    {
			"type":  "minecraft:heightmap",
			"heightmap": "OCEAN_FLOOR_WG"
		}
	]
}
